<?xml version="1.0" encoding="utf-8"?>
<!-- Generator: Adobe Illustrator 16.0.0, SVG Export Plug-In . SVG Version: 6.00 Build 0)  -->
<!DOCTYPE svg PUBLIC "-//W3C//DTD SVG 1.1//EN" "http://www.w3.org/Graphics/SVG/1.1/DTD/svg11.dtd">
<svg version="1.1" id="Layer_1" xmlns="http://www.w3.org/2000/svg" xmlns:xlink="http://www.w3.org/1999/xlink" x="0px" y="0px"
	 width="595.281px" height="841.89px" viewBox="0 0 595.281 841.89" enable-background="new 0 0 595.281 841.89"
	 xml:space="preserve">
<g>
	<path fill="#151A47" d="M83.649,348.04c-0.297,0.011-0.603-0.033-0.914-0.08c-1.129-0.169-2.44-0.552-3.574-1.749
		c-0.059,0.064-0.121,0.024-0.178,0.074c0.582,2.463,4.322,3.245,5.964,1.827C84.491,347.91,84.069,348.021,83.649,348.04z"/>
	<path fill="#151A47" d="M82.145,315.833l0.017-0.074c-2.136-1.051-4.306-0.161-5.326,1.244c0.42-0.028,0.768-0.291,1.162-0.458
		c0.993-0.423,2.121-0.829,3.394-0.659C81.614,315.914,81.95,316.096,82.145,315.833z"/>
	<path fill="#151A47" d="M123.648,341.461c-0.111,0.064-0.225,0.175-0.352,0.248c-0.371,0.222-0.749,0.512-1.175,0.744
		c-0.54,0.289-1.088,0.527-1.595,0.805c-1.125,0.496-2.328,0.805-3.538,1.072c-0.355,0.078-0.687,0.248-1.066,0.26
		c-0.28,0.113-0.575,0.182-0.864,0.261c-0.638,0.273-1.279,0.549-1.949,0.734c-0.131-0.006-0.258,0.036-0.367,0.135
		c0.035,0.349,0.727-0.01,1.003-0.056c0.605-0.095,1.305-0.215,1.988-0.402c0.61-0.169,1.194-0.329,1.708-0.458
		c0.768-0.133,1.515-0.284,2.256-0.53c0.349-0.115,0.652-0.251,1-0.4c0.095-0.041,0.219-0.068,0.314-0.111
		c0.526-0.251,0.909-0.596,1.417-0.948c0.134-0.094,0.258-0.179,0.427-0.303c0.292-0.212,0.714-0.376,1.078-0.606
		c0.141-0.087,0.302-0.216,0.51-0.351c0.222-0.147,0.666-0.277,0.451-0.472C124.619,341.162,123.92,341.314,123.648,341.461z"/>
	<path fill="#151A47" d="M78.29,314.854c1.158-0.394,2.596-0.678,4.266-0.097l0.133-0.158c-1.773-2.058-5.715-0.953-6.578,1.206
		c0.533-0.035,0.879-0.35,1.272-0.574C77.66,315.074,77.97,314.964,78.29,314.854z"/>
	<path fill="#151A47" d="M126.01,347.661c-0.327,0.238-0.732,0.383-1.047,0.735c-0.233,0.262-0.506,0.837-0.547,1.128
		c-0.045,0.325,0.05,0.844,0.411,1.128c0.107,0.085,0.452,0.177,0.591,0.191c0.212,0.018,0.561-0.015,0.77-0.109
		c0.495-0.228,0.829-0.649,1.112-1.077c0.228-0.343,0.406-0.827,0.52-1.265c0.124-0.478,0.26-0.936,0.262-1.291l0.001-0.049
		l-0.011-0.012C127.393,347.282,126.711,347.508,126.01,347.661z M126.32,348.292c-0.272,0.562-0.952,0.937-1.432,1.391
		C124.852,349.019,125.736,348.336,126.32,348.292z M125.322,350.292c0.263-0.673,1.125-1.228,1.796-1.689l0.068,0.025
		C126.637,349.261,126.124,350.417,125.322,350.292z"/>
	<path fill="#151A47" d="M107.558,351.917c-0.471,0.247-0.998,0.548-1.278,0.925c-0.204,0.273-0.272,0.534-0.31,0.789
		c0.063,0.208,0.042,0.409,0.129,0.599c0.16,0.349,0.489,0.537,0.794,0.587c0.196,0.033,0.503,0.014,0.764-0.058
		c0.467-0.125,0.79-0.321,1.145-0.71c0.304-0.334,0.395-0.578,0.521-0.949c0.143-0.421,0.232-0.802,0.378-1.195
		c0.125-0.331,0.409-0.66,0.438-0.959v-0.019c-0.251,0.081-0.583,0.156-0.891,0.318
		C108.695,351.536,108.097,351.634,107.558,351.917z M106.663,353.839l-0.106-0.086c0.225-0.84,1.13-1.6,1.941-1.745
		c-0.124,0.232-0.346,0.44-0.54,0.659C107.599,353.076,107.192,353.667,106.663,353.839z M108.585,353.001
		c-0.142,0.197-0.266,0.448-0.394,0.632c-0.096,0.034-0.119,0.138-0.195,0.218c-0.275,0.288-0.714,0.512-0.957,0.566l-0.127-0.13
		c0.12-0.433,0.606-0.724,1.028-0.995c0.335-0.216,0.612-0.5,0.854-0.698C108.848,352.757,108.675,352.872,108.585,353.001z"/>
	<path fill="#151A47" d="M83.837,346.955c-0.292-0.125-0.617-0.068-0.936-0.094c-0.811-0.064-1.705-0.179-2.496-0.735
		c-0.137-0.099-0.296-0.336-0.519-0.228l-0.036,0.044C80.911,347.382,82.665,347.542,83.837,346.955z"/>
	<path fill="#151A47" d="M151.071,327.824c-0.426,0.258-0.577,0.668-0.802,1.023c-0.161,0.25-0.373,0.475-0.59,0.703
		c-0.785,0.829-1.85,1.684-3.48,1.927c0.019,0.085-0.049,0.113-0.042,0.188C148.509,332.6,151.293,329.983,151.071,327.824z"/>
	<path fill="#151A47" d="M148.875,328.785c-0.518,0.628-1.124,1.294-2.033,1.624c-0.159,0.056-0.445,0.05-0.484,0.294l0.016,0.055
		c1.787-0.043,2.923-1.39,3.113-2.686C149.216,328.239,149.078,328.539,148.875,328.785z"/>
	<path fill="#151A47" d="M77.715,318.034c0.243,0.09,0.326-0.084,0.439-0.206c0.421-0.186,0.808-0.424,1.236-0.597
		c0.703-0.16,1.339-0.092,2.157-0.062c0.056-0.098,0.122-0.178,0.183-0.268C80.516,316.229,77.793,316.828,77.715,318.034z"/>
	<path fill="#151A47" d="M143.692,317.336c-1.027,0.291-1.782,0.881-2.472,1.591c-0.466,0.478-0.933,0.95-1.384,1.371
		c-0.98,0.912-1.87,1.846-2.872,2.624c-0.196,0.093-0.613,0.358-0.221,0.449c0.951-0.187,1.722-0.471,2.461-0.94
		c0.147-0.093,0.307-0.197,0.416-0.339c0.218-0.107,0.427-0.261,0.604-0.417c0.181-0.164,0.358-0.322,0.542-0.478
		c0.362-0.305,0.684-0.654,1.02-1.021c0.646-0.707,1.138-1.573,1.996-2.091c0.076-0.046,0.196-0.114,0.286-0.157
		c0.162-0.074,0.36-0.033,0.507-0.118c0.11-0.064,0.14-0.243,0.186-0.393C144.507,317.269,144.028,317.313,143.692,317.336z"/>
	<path fill="#151A47" d="M133.817,324.071c-0.179-0.012-0.469,0.049-0.699,0.116c-0.572,0.164-1.372,0.498-1.675,0.854
		c-0.229,0.346-0.492,0.666-0.644,1.089c-0.093,0.258-0.13,0.505-0.254,0.741c-0.095,0.192-0.301,0.353-0.465,0.517
		c-0.18,0.173-0.331,0.321-0.498,0.446c-0.369,0.271-0.763,0.448-1.157,0.66c-0.821,0.363-1.585,0.826-2.409,1.168
		c-0.108,0.182-0.388,0.26-0.372,0.479c0.275,0.113,0.512-0.028,0.729-0.119c0.462-0.198,0.88-0.482,1.339-0.707
		c0.225-0.108,0.467-0.148,0.704-0.269l0.205-0.151c0.349-0.17,0.789-0.316,1.172-0.421c0.402-0.107,0.805-0.171,1.196-0.373
		c0.353-0.182,0.832-0.634,0.944-1.07c0.095-0.367-0.058-0.799,0.092-1.22c0.162-0.444,0.886-1.117,1.289-1.328
		c0.104-0.052,0.221-0.05,0.316-0.111C133.869,324.501,134.127,324.098,133.817,324.071z"/>
	<path fill="#151A47" d="M122.476,332.676c0.152-0.236,0.586-0.382,0.514-0.66c-0.092-0.013-0.168,0.004-0.267-0.019
		c-0.341,0.184-0.721,0.284-1.082,0.439c-0.856,0.146-1.791,0.069-2.646,0.157c-0.861,0.094-1.727,0.08-2.552,0.215
		c-0.167,0.028-0.311,0.134-0.481,0.086c0.169-0.158,0.419-0.179,0.623-0.241c0.215-0.066,0.44-0.083,0.645-0.18
		c0.233-0.021,0.449-0.072,0.682-0.11c0.233-0.038,0.452-0.062,0.697-0.074c0.286-0.015,0.586-0.101,0.874-0.103
		c0.414-0.002,0.829-0.008,1.263,0.01c0.764-0.083,1.543-0.165,2.219-0.476l0.17-0.008c0.226-0.149,0.599-0.273,0.63-0.604
		c-0.279-0.189-0.644-0.039-0.929-0.035c-0.371,0.088-0.757,0.494-1.152,0.28c0.067-0.332,0.586-0.561,0.9-0.704
		c0.331-0.147,0.81-0.29,1.136-0.486c0.186-0.11,0.43-0.342,0.534-0.54c0.26-0.505-0.046-1.078-0.471-1.261
		c-0.191-0.08-0.357-0.118-0.421-0.021c-0.074,0.11,0.081,0.291,0.081,0.417c-0.067,0.298-0.166,0.531-0.318,0.873
		c-0.065,0.05-0.12,0.117-0.178,0.181c-0.201,0.056-0.517,0.194-0.845,0.16c-0.574-0.063-1.114-0.436-1.151-0.829
		c-0.014-0.156-0.014-0.294,0.088-0.488c0.151-0.079,0.364-0.108,0.288-0.319c-0.326-0.118-0.462,0.2-0.723,0.227
		c-0.268,0.217-0.637,0.492-0.872,0.827c-0.503,0.726-0.546,1.471-0.062,1.917c-0.172,0.046-0.347,0.066-0.522,0.097
		c-0.497,0.083-1.016,0.196-1.534,0.281c-0.426,0.204-0.926,0.233-1.368,0.42c-0.437,0.182-0.875,0.372-1.334,0.534
		c-0.139,0.139-0.28,0.153-0.387,0.301c0.212,0.229,0.511-0.032,0.742,0.118c0.169-0.106,0.361-0.131,0.559-0.129
		c-0.214,0.07-0.474,0.146-0.729,0.246c-0.215,0.088-0.572,0.162-0.739,0.333c0.005,0.121,0.146,0.062,0.193,0.16
		c0.473-0.096,0.988-0.064,1.449-0.212c0.551-0.007,1.149-0.05,1.728-0.135c0.178-0.027,0.388-0.071,0.554-0.071
		c0.228-0.004,0.448,0.013,0.691-0.009l0.209-0.058c0.195-0.026,0.432-0.024,0.654-0.035c0.224-0.014,0.456-0.066,0.647-0.067
		c0.302-0.001,0.595-0.024,0.917-0.065c0.243-0.034,0.542-0.05,0.707-0.124C122.244,332.83,122.334,332.692,122.476,332.676z"/>
	<path fill="#151A47" d="M132.868,326.317c-0.025-0.361,0.243-0.58,0.149-0.859c-0.222-0.075-0.397,0.228-0.542,0.444
		c-0.06,0.083-0.158,0.173-0.191,0.243c-0.074,0.157-0.048,0.426-0.07,0.602l-0.041,0.16c0.021,0.152,0.19,0.256,0.171,0.382
		c0.541,0.148,0.82-0.272,0.684-0.688C132.996,326.507,132.876,326.435,132.868,326.317z"/>
	<path fill="#151A47" d="M124.867,333.164c-0.357-0.456-1.807-0.291-1.292,0.34c-0.179,0.103-0.368,0.022-0.577-0.004
		c-0.35-0.046-0.753-0.225-0.97,0.004c0.119,0.179,0.418,0.186,0.655,0.274c0.414,0.151,0.839,0.326,1.208,0.218
		c0.193,0.057,0.499,0.026,0.672-0.097c0.123-0.087,0.299-0.366,0.331-0.474C124.925,333.319,124.835,333.246,124.867,333.164z"/>
	<path fill="#151A47" d="M147.875,325.873c0.137-0.326,0.262-0.651,0.334-1.027c0.044-0.228,0.147-0.48,0.167-0.708
		c0.013-0.113-0.012-0.231-0.01-0.35c0.018-0.355-0.023-0.968,0.141-1.413c0.075-0.199,0.185-0.387,0.257-0.584
		c0.196-0.548,0.454-1.232,0.519-1.836c0.032-0.29,0.055-0.956,0.035-1.271c-0.011-0.183-0.087-0.336-0.125-0.507
		c-0.061-0.278-0.076-0.578-0.223-0.766c-0.052-0.286-0.136-0.519-0.278-0.669c-0.006-0.217-0.13-0.471-0.109-0.76
		c0.025-0.309-0.043-0.548,0.021-0.728c0.089-0.25,0.221-1.117,0.473-2.735c0.073-0.477,0.201-1.112,0.409-1.526
		c0.067-0.139,0.326-0.314,0.167-0.448c-0.398,0.134-0.61,0.423-0.799,0.693c-0.064,0.093-0.159,0.184-0.197,0.254
		c-0.057,0.097-0.077,0.24-0.133,0.358c-0.055,0.115-0.142,0.224-0.186,0.327c-0.08,0.198-0.145,0.466-0.217,0.715
		c-0.067,0.237-0.625,1.073-1.151,1.829c-0.328-0.278-0.135-1.853-0.484-1.515c-0.182,0.177-0.361,0.343-0.478,0.554
		c-0.102,0.03-0.135,0.11-0.213,0.162c-1.012-0.201-1.95-0.564-3.226-0.396c-0.422,0.055-0.887,0.059-1.293,0.195
		c-0.694,0.232-1.479,0.579-2.03,0.934c-0.254,0.162-0.459,0.391-0.693,0.589c-0.458,0.384-1.008,0.734-1.611,0.895
		c-0.66,0.176-1.409-0.029-2.005,0.27c-0.678,0.108-1.234,0.33-1.657,0.639c-0.154,0.115-0.237,0.244-0.387,0.403
		c-0.274,0.304-0.653,0.495-0.979,0.745c-0.331,0.256-0.724,0.382-1.076,0.609c-0.226,0.054-0.4,0.2-0.585,0.326
		c-0.621,0.428-1.127,1.078-1.747,1.546c-0.534,0.407-1.005,0.771-1.709,0.882c-0.33,0.052-0.632,0.139-0.944,0.27
		c-0.292,0.123-0.606,0.203-0.911,0.313c-0.716,0.255-1.367,0.579-1.967,0.986c-0.739,0.378-1.531,0.451-2.4,0.473
		c-0.288,0.008-0.564-0.01-0.846,0.005c-0.808,0.041-1.567,0.285-2.358,0.381c-0.269,0.029-0.517,0.133-0.78,0.122
		c-0.44,0.154-0.899,0.211-1.351,0.37c-0.343,0.121-0.684,0.288-1.027,0.458c-2.32-15.406-3.113-14.695-5.19-21.134
		c-0.145-0.133,3,19.093,3.445,21.813c-0.076,0.02-0.151,0.042-0.226,0.067c-0.289,0.094-0.595,0.109-0.889,0.197
		c-0.148-0.034-0.308-0.035-0.475-0.045c-0.512-0.036-1.17-0.482-1.739-0.626c-0.957-0.239-1.777,0.015-2.682,0.401
		c-0.325,0.049-0.683,0.21-1.021,0.192c-0.438-0.027-0.852-0.256-1.304-0.394c-0.43-0.133-0.859-0.301-1.27-0.378
		c-0.414-0.082-0.838-0.179-1.266-0.275c-0.426-0.098-0.838-0.252-1.241-0.354c-0.449-0.115-0.842-0.293-1.239-0.422
		c-0.409-0.137-0.799-0.211-1.226-0.213c-0.418-0.004-0.826-0.101-1.247-0.022c-0.211,0.041-0.414,0.127-0.645,0.152
		c-0.282,0.03-0.61,0.043-0.897,0.207c-0.287,0.011-0.628-0.107-0.966-0.215c-0.143-0.043-0.271-0.135-0.407-0.195
		c-0.135-0.061-0.283-0.081-0.413-0.131c-0.115-0.04-0.214-0.125-0.322-0.171c-0.129-0.056-0.286-0.071-0.413-0.136
		c-0.253-0.126-0.483-0.327-0.728-0.448c-0.118-0.055-0.257-0.104-0.372-0.146c-0.13-0.054-0.245-0.109-0.365-0.177
		c-1.28-0.732-2.537-1.363-3.786-1.879c-0.748-0.07-1.422-0.394-2.191-0.459c-0.354-0.094-0.77-0.245-1.199-0.261
		c-0.309-0.012-0.673-0.039-1.004,0.002c-0.166,0.018-0.281,0.06-0.479,0.1c-0.16,0.035-0.358,0.01-0.532,0.016
		c-0.191,0.004-0.374,0.014-0.545-0.015c-0.238-0.043-0.478-0.131-0.725-0.163c-0.381-0.055-0.774-0.157-1.213-0.104
		c-0.356,0.044-0.828,0.193-1.209,0.317c-0.148,0.051-0.338,0.057-0.464,0.115c-0.082,0.035-0.123,0.15-0.197,0.207
		c-0.184,0.135-0.42,0.208-0.634,0.324l-0.199,0.144c-0.085,0.038-0.197,0.039-0.282,0.082c-0.078,0.04-0.122,0.123-0.197,0.167
		c-0.175,0.103-0.359,0.169-0.522,0.286c-0.252,0.183-0.478,0.411-0.805,0.552c-0.499,0.216-1.026,0.217-1.389,0.548
		c-0.171,0.155-0.4,0.334-0.532,0.532c-0.077,0.115-0.116,0.258-0.183,0.368c-0.208,0.339-0.426,0.612-0.635,0.969
		c-0.281,0.28-0.566,0.583-0.786,0.935c-0.207,0.338-0.467,0.647-0.649,1.023c-0.171,0.357-0.206,0.845-0.326,1.262
		c-0.062,0.211-0.07,0.446-0.109,0.673c-0.014,0.105-0.08,0.198-0.101,0.305c-0.021,0.114-0.003,0.245-0.029,0.348
		c-0.077,0.323-0.188,0.631-0.241,0.962c-0.025,0.165-0.03,0.358-0.05,0.533c-0.072,0.641,0.089,1.575,0.433,2.5
		c0.157,0.434,0.329,0.882,0.577,1.303c0.109,0.181,0.283,0.351,0.409,0.539c0.125,0.182,0.276,0.34,0.404,0.513
		c0.092,0.121,0.148,0.267,0.239,0.382c0.085,0.111,0.208,0.2,0.29,0.309c0.126,0.16,0.218,0.337,0.35,0.496
		c0.578,0.708,1.238,1.502,1.78,2.259c0.24,0.208,0.558,0.512,0.662,0.765c0.493,0.398,0.881,1.034,1.387,1.475
		c0.278,0.244,0.634,0.483,1.009,0.665c0.199,0.093,0.399,0.135,0.564,0.197c0.541,0.208,1.021,0.529,1.511,0.919
		c0.294,0.239,0.519,0.541,0.908,0.836c0.269,0.208,0.621,0.297,0.924,0.54c0.398,0.141,0.775,0.28,1.185,0.369
		c0.813,0.175,1.55,0.296,2.369,0.56c0.375,0.121,0.817,0.253,1.149,0.422c0.193,0.1,0.336,0.24,0.527,0.337
		c1.14,0.573,2.391,0.774,3.616,1.059c0.397,0.153,0.89,0.332,1.335,0.514c0.149,0.059,0.342,0.116,0.436,0.179
		c0.265,0.171,0.41,0.449,0.635,0.602c0.338,0.228,1.108,0.435,1.5,0.467c0.359,0.025,0.69-0.044,1.074,0.032
		c0.446-0.119,0.961-0.053,1.443-0.145c0.22-0.043,0.378-0.132,0.613-0.154c0.37-0.038,0.998-0.051,1.299,0.008
		c0.438,0.08,0.758,0.291,1.152,0.444c0.194,0.077,0.462,0.134,0.695,0.201c0.89,0.251,1.767,0.158,2.647-0.024
		c0.633-0.128,1.253-0.25,1.906-0.387c1.014-0.065,1.889-0.005,2.925,0.165c0.338,0.052,0.666,0.107,0.996,0.112
		c0.635,0.012,1.296-0.021,1.947-0.041c0.63-0.017,1.312-0.079,1.887-0.253c0.259-0.077,0.499-0.17,0.771-0.25
		c0.518-0.144,0.973-0.402,1.476-0.606c0.18-0.072,0.359-0.146,0.539-0.222c0.556,3.482,2.477,15.254,3.803,20.113
		c0.129,0.118-1.515-17.365-1.832-20.72c0.222-0.046,0.456-0.061,0.671-0.12c0.166-0.044,0.301-0.131,0.465-0.19
		c0.26-0.092,0.571-0.168,0.863-0.261c0.272-0.087,0.571-0.159,0.848-0.252c0.58-0.199,1.108-0.406,1.666-0.562
		c0.277-0.074,0.559-0.199,0.839-0.303c0.274-0.099,0.565-0.196,0.828-0.301c0.559-0.224,1.121-0.324,1.676-0.543
		c1.005-0.211,1.987-0.134,2.96-0.373c1.292-0.317,1.795-1.192,2.501-2.036c0.288-0.346,0.696-0.63,1.049-0.905
		c0.216-0.17,0.392-0.354,0.587-0.509c0.136-0.11,0.323-0.216,0.471-0.332c0.158-0.128,0.296-0.277,0.441-0.377
		c0.199-0.135,0.463-0.225,0.692-0.345c0.234-0.125,0.472-0.239,0.686-0.353c0.457-0.235,0.938-0.432,1.363-0.738
		c0.629-0.308,1.214-0.618,1.849-0.917c0.616-0.291,1.278-0.534,1.869-0.908c0.795-0.503,1.664-1.157,2.058-1.998
		c0.186-0.393,0.344-0.844,0.449-1.257c0.051-0.201,0.106-0.403,0.196-0.619c0.114-0.269,0.407-0.581,0.64-0.869
		c0.223-0.28,0.464-0.565,0.665-0.792c0.227-0.255,0.481-0.464,0.701-0.728c0.272-0.331,0.584-0.792,0.786-1.203
		c0.07-0.137,0.178-0.307,0.222-0.431c0.044-0.127,0.018-0.427,0.089-0.576c0.136-0.285,0.778-0.563,1.154-0.807
		C147.287,326.879,147.616,326.484,147.875,325.873z M148.235,320.173c-0.154,0.833-0.517,1.541-1.106,2.069
		c0.465-0.823,0.811-1.815,0.969-2.763C148.19,319.646,148.195,319.932,148.235,320.173z M109.814,307.956l0.275-0.048l2.951,16.88
		l-0.275,0.048L109.814,307.956z M74.34,335.483c-0.508-0.5-0.941-1.081-1.417-1.577c-0.085-0.09-0.187-0.172-0.261-0.265
		c-0.366-0.459-0.575-0.891-0.679-1.354c-0.124-0.551-0.301-1.063,0.18-1.202c0.056,0.594,0.211,1.346,0.664,2.022
		c0.308,0.463,0.791,0.963,1.215,1.373c0.211,0.198,0.431,0.427,0.668,0.646c0.162,0.147,0.34,0.28,0.5,0.432
		c0.627,0.602,1.306,1.254,1.977,1.76c0.366,0.275,0.752,0.541,1.092,0.767c-0.218-0.045-0.414-0.162-0.628-0.237
		c-0.196-0.07-0.401-0.098-0.581-0.168c-0.254-0.1-0.56-0.279-0.83-0.45c-0.269-0.171-0.594-0.391-0.802-0.535l-0.043-0.034
		C75.185,336.325,74.652,335.905,74.34,335.483z M82.252,344.018c-0.489-0.415-1.019-1.471-1.432-1.888
		c-0.991-1-2.284-1.454-3.412-2.089c-0.755-0.543-1.616-1.065-2.2-1.838c0.625,0.542,1.312,0.942,2.078,1.113
		c0.363,0.203,0.741,0.274,1.111,0.386c0.373,0.111,0.763,0.221,1.168,0.305c0.288,0.149,0.633,0.177,0.949,0.271
		c0.21,0.067,0.711,0.273,0.802,0.384c-0.628-0.164-1.521-0.496-2.067-0.194c0.034,0.082-0.028,0.125,0.008,0.21
		c0.558,0.581,1.347,0.431,1.994,0.733c0.269,0.235,0.454,0.484,0.667,0.807c0.207,0.319,0.745,1.316,0.791,1.5
		C82.778,343.975,82.663,344.232,82.252,344.018z M89.885,344.21c-0.665-0.502-1.428-0.718-2.203-0.915
		c-0.871-0.225-1.653-0.495-2.413-0.974c-0.413-0.261-0.824-0.572-1.114-0.979c0.163-0.005,0.303,0.203,0.422,0.147
		c0.375,0.323,0.792,0.471,1.181,0.749c0.712,0.171,1.341,0.586,2.041,0.812c0.097,0.03,0.214,0.019,0.312,0.053
		c0.212,0.073,0.402,0.184,0.61,0.252c0.264,0.083,0.519,0.165,0.77,0.27C89.796,343.822,89.991,344.003,89.885,344.21z
		 M91.126,342.48c-0.16-0.102-0.327-0.213-0.466-0.329c-0.229-0.2-0.485-0.507-0.449-0.683c1.13,0.478,2.139,1.056,3.244,1.344
		c0.367,0.093,0.74,0.123,1.125,0.196c0.156,0.027,0.294,0.092,0.444,0.11c0.463,0.059,0.967,0.059,1.407,0.125l0.033,0.004
		c-0.454,0.093-0.993,0.146-1.51,0.194c-0.468,0.043-1.009,0.07-1.44-0.003c-0.455-0.081-0.86-0.291-1.297-0.398
		C91.884,342.845,91.476,342.706,91.126,342.48z M95.814,347.417c-0.44,0.061-1.103-0.106-1.305-0.487
		c0.104-0.141,0.288-0.33,0.544-0.379C95.468,346.732,95.938,347.184,95.814,347.417z M97.971,346.498
		c-0.474-0.072-0.92-0.221-1.406-0.404c-0.476-0.179-0.923-0.455-1.382-0.575c-0.62-0.167-1.145-0.174-1.773-0.125
		c-0.235,0.021-0.5,0.02-0.693,0.064c-0.462,0.105-0.758,0.336-0.988,0.54c-0.075-0.17-0.02-0.314,0.11-0.447
		c0.272-0.273,0.686-0.518,1.172-0.589c1.688-0.258,3.401,0.799,5.008,1.503l0.024,0.038L97.971,346.498z M104.613,345.645
		c-0.457,0.175-0.927,0.262-1.4,0.353l-0.167,0.074c-1.379,0.205-2.891,0.621-4.247-0.436c1.485,0.745,2.981,0.458,4.401-0.016
		c0.125,0.007,0.243-0.034,0.369-0.014c0.291-0.146,0.751-0.121,1.1-0.217c0.217,0.039,0.431,0.066,0.651,0.146
		C105.085,345.566,104.853,345.636,104.613,345.645z M118.471,361.68l-0.275,0.043l-2.243-14.106l0.275-0.043L118.471,361.68z
		 M142.431,329.406c-0.083,0.208-0.308,0.325-0.448,0.478c-0.373,0.441-0.822,0.861-1.367,1.458
		c-0.212,0.231-0.396,0.474-0.665,0.757c-0.204,0.217-0.632,0.552-0.654,0.808l0.17,0.158c0.211,0,0.345-0.255,0.493-0.394
		c0.518-0.431,1-0.909,1.446-1.385c0.152-0.164,0.303-0.348,0.437-0.527c0.264-0.192,0.423-0.488,0.745-0.627
		c-0.116,0.28-0.412,0.576-0.644,0.826c-0.184,0.307-0.432,0.553-0.693,0.781c-0.205,0.362-0.543,0.592-0.866,0.824
		c-0.191,0.402-0.775,0.706-0.93,1.113c-0.217,0.569,0.068,0.938-0.142,1.367c-0.091,0.183-0.393,0.411-0.531,0.503
		c-0.219,0.144-0.667,0.311-0.913,0.242c-0.077-0.196-0.249-0.384-0.168-0.642c0.028-0.088,0.139-0.186,0.191-0.274
		c0.073-0.125,0.106-0.256,0.195-0.385c0.166-0.235,0.55-0.647,0.396-0.876c-0.499,0.151-0.831,0.609-1.225,0.894
		c-0.098,0.07-0.218,0.104-0.311,0.178c-0.305,0.229-0.583,0.509-0.882,0.76c-0.152,0.127-0.312,0.237-0.463,0.36
		c-0.151,0.128-0.271,0.283-0.425,0.409c-0.127,0.105-0.297,0.19-0.438,0.31c-0.223,0.186-0.415,0.375-0.654,0.471
		c-0.232,0.219-0.525,0.344-0.795,0.511c-0.427,0.393-0.942,0.673-1.526,0.84c-0.156,0.139-0.259,0.204-0.447,0.304
		c-0.304,0.159-0.65,0.261-0.935,0.412c-0.733,0.389-1.693,1.227-1.511,2.032c0.151,0.16,0.095,0.412,0.204,0.589
		c-0.104,0.353-0.363,0.775-0.738,1.011c-0.456,0.287-1.146,0.242-1.385-0.12c-0.028-0.337-0.148-0.67,0.257-1.163
		c0.157-0.042,0.232-0.164,0.427-0.261c0.247-0.122,0.665-0.14,0.63-0.38c-0.11-0.114-0.704,0.124-0.896,0.218
		c-0.09,0.043-0.248,0.142-0.385,0.227c-0.117,0.073-0.267,0.167-0.374,0.243c-0.639,0.45-0.885,1.052-1.12,1.685
		c-0.547-0.097-0.514-0.709-0.174-1.117c0.131-0.158,0.474-0.288,0.381-0.471c-0.453,0.011-1.039,0.237-1.524,0.468
		c-0.746,0.361-1.732,1.071-2.048,1.895c-0.512,0.267-1.081,0.399-1.658,0.516c-0.905,0.296-1.811,0.609-2.763,0.776
		c-1.075,0.358-2.239,0.431-3.317,0.794c-0.349,0.072-1.004,0.084-1.267,0.349c-0.083,0.086-0.071,0.204-0.144,0.299l-0.169,0.116
		l0.004,0.085l-0.111,0.076c-0.047,0.073-0.051,0.153-0.116,0.208c-0.155,0.141-0.401,0.221-0.645,0.312
		c-0.818,0.152-2.116-0.66-2.36-1.143c0.319-0.23,0.665-0.263,1.076-0.377c0.256-0.072,0.522-0.156,0.776-0.228
		c0.54-0.152,1.173-0.179,1.582-0.388c0.309-0.158,0.419-0.384,0.623-0.567c-0.079-0.05-0.128-0.073-0.219-0.139
		c-0.407,0.071-0.855,0.029-1.285,0.057c-0.163,0.009-0.343,0.048-0.498,0.063c-0.162,0.016-0.386,0.032-0.449-0.021
		c0.397-0.114,0.803-0.224,1.161-0.33c0.132-0.039,0.247-0.109,0.383-0.155c0.245-0.083,0.578-0.141,0.87-0.205
		c0.478-0.103,0.938-0.192,1.397-0.268c0.532-0.086,1.06-0.223,1.581-0.263c1.102-0.312,2.287-0.375,3.39-0.694
		c0.5-0.267,1.045-0.41,1.544-0.658c0.887-0.513,1.738-1.097,2.617-1.574c0.649-0.207,1.435-0.336,2.093-0.423
		c0.722-0.194,1.3-0.488,1.909-0.804c0.177-0.09,0.296-0.171,0.456-0.279c0.867-0.594,1.772-1.395,2.484-2.077
		c0.19-0.184,0.363-0.388,0.593-0.534c0.083-0.051,0.197-0.073,0.287-0.122c0.246-0.137,0.35-0.21,0.625-0.314
		c0.217-0.084,0.372-0.182,0.613-0.149c0.282,0.274-0.337,0.665-0.563,0.838c-0.299,0.229-0.561,0.438-0.861,0.617
		c-0.162,0.092-0.34,0.168-0.491,0.262c-0.17,0.104-0.312,0.255-0.485,0.348c-0.111,0.061-0.235,0.075-0.349,0.134
		c-0.167,0.084-0.341,0.213-0.5,0.303c-0.165,0.093-0.413,0.18-0.431,0.347c0.108,0.109,0.317,0.004,0.455-0.057
		c0.464-0.201,0.952-0.387,1.343-0.634c0.219-0.055,0.4-0.165,0.611-0.225c0.292-0.214,0.628-0.367,0.952-0.537
		c0.298-0.257,0.64-0.404,0.973-0.594c0.372-0.213,0.662-0.383,0.974-0.648c0.399-0.338,1.005-0.628,1.352-0.944
		c0.066-0.059,0.107-0.153,0.18-0.225c0.202-0.197,0.437-0.319,0.503-0.594c0.273-0.174,0.503-0.415,0.727-0.62
		c0.323-0.291,0.652-0.597,0.901-0.944c0.403-0.324,0.704-0.767,1.116-1.086c0.746-0.924,1.624-1.698,2.307-2.656
		c0.318-0.244,0.582-0.653,0.906-0.82c-0.128,0.286-0.318,0.615-0.364,0.944C142.43,329.186,142.48,329.287,142.431,329.406z
		 M144.521,327.741c-0.563-0.151-0.274-1.419-0.213-2.142l0.064-0.031c0.039,0.044,0.029,0.144,0.148,0.104
		c0.007,0.212,0.124,0.39,0.138,0.622C144.68,326.739,144.586,327.274,144.521,327.741z M144.763,323.307
		c-0.818,0.557-1.206,1.582-1.435,2.54c-0.185,0.153-0.202,0.377-0.318,0.564c-0.135,0.219-0.497,0.581-0.686,0.786
		c-0.083,0.093-0.167,0.21-0.237,0.277c-0.075,0.076-0.174,0.117-0.245,0.185c-0.126,0.128-0.212,0.23-0.348,0.344
		c-0.203,0.171-0.388,0.324-0.609,0.465c-0.464,0.3-0.96,0.602-1.528,0.743c-0.333,0.212-0.699,0.326-1.01,0.529
		c-0.162,0.106-0.304,0.248-0.478,0.359c-0.169,0.111-0.339,0.222-0.501,0.337c-1.021,0.712-1.719,1.639-2.619,2.552
		c-0.087,0.255-0.513,0.481-0.371,0.705c0.192,0.011,0.386-0.15,0.522-0.266c0.157-0.129,0.306-0.268,0.453-0.389
		c0.919-0.758,1.732-1.551,2.791-2.118c-0.337,0.39-0.745,0.695-1.101,1.042c-0.379,0.374-0.783,0.759-1.188,1.069
		c-0.449,0.346-0.903,0.555-1.414,0.78c-0.521,0.232-1.094,0.484-1.597,0.665c-0.132,0.049-0.258,0.061-0.398,0.104
		c-0.258,0.081-0.483,0.314-0.742,0.335c0.33-0.221,0.571-0.52,0.848-0.798c0.094-0.092,0.25-0.17,0.213-0.307
		c-0.235-0.103-0.438,0.108-0.697,0.247c-0.793,0.418-1.46,0.976-2.179,1.378c-0.334,0.276-0.696,0.531-1.046,0.809
		c-0.479,0.377-1.043,0.801-1.408,1.302c-0.112,0.151-0.202,0.307-0.34,0.457c-0.259,0.286-0.551,0.504-0.875,0.728
		c-0.373,0.163-0.773,0.347-1.187,0.346c-0.428,0.001-0.861-0.186-1.317-0.174c-0.229,0.003-0.554,0.071-0.82,0.12
		c-0.62,0.107-1.08,0.327-1.64,0.463c-0.79,0.38-1.631,0.646-2.538,0.729c-0.147,0.104-0.345,0.069-0.494,0.168
		c-0.093-0.034-0.153,0.023-0.246-0.008c-0.73,0.185-1.473,0.343-2.201,0.449c-0.668,0.095-1.324,0.202-2.002,0.232
		c-0.328,0.012-0.7-0.071-1.019,0.089l0.026,0.185c0.406,0.256,0.896,0.275,1.335,0.417c0.309,0.014,0.692,0.063,0.976,0.047
		l0.262,0.008c-0.494,0.066-0.984,0.141-1.496,0.124c-0.205,0.038-0.458,0.093-0.703,0.118c-0.132,0.015-0.39-0.059-0.46,0.081
		c-0.054,0.109,0.315,0.272,0.497,0.336c0.901,0.307,2.229,0.288,2.917,0.262c-0.966,0.148-1.928,0.295-2.885,0.386
		c-0.697,0.067-1.305,0.096-1.938,0.315c-0.313,0.105-0.661,0.182-0.96,0.287c-0.455,0.163-0.895,0.385-1.416,0.475
		c-0.038-0.197-0.021-0.381-0.282-0.501c-0.268-0.12-0.68-0.022-0.931-0.125c-0.948,0.067-1.936,0.189-2.94,0.338
		c-1.499,0.225-3.018,0.476-4.506,0.01c-0.109-0.083-0.213-0.121-0.316-0.163c0.141-0.014,0.283,0.044,0.427,0.084
		c1.649,0.04,3.307-0.1,4.927-0.229c0.407-0.034,0.808-0.096,1.217-0.116c0.827-0.038,1.627-0.082,2.431-0.172
		c0.188-0.022,0.398-0.071,0.6-0.094c0.207-0.026,0.483-0.006,0.599-0.186c-0.091-0.171-0.373-0.137-0.549-0.179
		c-0.117-0.024-0.199-0.082-0.31-0.101c-0.585-0.097-1.237-0.051-1.768-0.049c-0.533,0.002-1.052,0.085-1.554,0.091
		c-0.688,0.089-1.393,0.017-2.077,0.146c-0.152-0.061-0.292-0.012-0.441-0.041c-0.524,0.099-1.079,0.085-1.614,0.092
		c-0.53,0.006-1.093-0.017-1.63-0.15c0.792,0.012,1.546-0.044,2.321-0.112c1.331-0.122,2.654-0.149,3.936-0.341
		c0.408,0.056,0.797,0.031,1.195,0.024c0.509-0.009,1.027,0.008,1.528,0.046c0.337-0.071,0.677-0.116,1.026-0.098
		c0.256-0.061,0.514-0.087,0.774-0.121c0.245-0.029,0.545-0.013,0.762-0.151c0.001-0.173-0.271-0.136-0.437-0.215
		c-0.108,0.015-0.189,0.012-0.287,0.002c-0.813-0.088-1.614-0.292-2.423-0.332c-0.19-0.011-0.363,0.007-0.55-0.01
		c-0.815-0.062-1.616-0.174-2.383-0.136c-0.7,0.031-1.363,0.064-2.039,0.173c-0.577-0.013-1.112,0.057-1.623,0.114
		c-0.522,0.057-1.126,0.076-1.636,0.036c-0.825-0.064-1.669-0.347-2.471-0.688c-0.272-0.113-0.559-0.205-0.816-0.325
		c-0.272-0.126-0.531-0.283-0.826-0.398c-0.54-0.212-1.146-0.224-1.699-0.414c-0.788-0.029-1.562-0.305-2.33-0.562
		c-0.816-0.133-1.619-0.344-2.474-0.25c-0.478,0.125-0.943,0.174-1.417,0.216c-1.743-0.306-3.372-1.13-4.979-1.716
		c-0.241-0.087-0.511-0.205-0.714-0.254c-0.193-0.047-0.861-0.155-0.821,0.081c0.028,0.171,0.265,0.205,0.525,0.323
		c0.591,0.27,1.105,0.515,1.631,0.814c0.737,0.425,1.469,0.681,2.181,1.058c0.173,0.008,0.469,0.134,0.688,0.204
		c2.036,0.37,4.066,0.69,6.104,1.035c0.52,0.21,1.049,0.285,1.571,0.5c-0.429,0.009-0.842-0.236-1.277-0.193l-0.147-0.083
		c-0.33-0.032-0.654-0.108-0.98-0.166c-1.006-0.172-2.012-0.249-3.022-0.339c-0.684-0.062-1.358-0.159-2.027-0.286
		c-0.68-0.124-1.305-0.368-1.976-0.598c-0.641-0.358-1.375-0.706-1.902-1.226c-0.829-0.493-1.623-0.975-2.465-1.303
		c-0.207-0.08-0.407-0.145-0.606-0.23c-1.004-0.435-1.918-1.029-2.768-1.828c-0.287-0.266-0.49-0.549-0.761-0.848
		c-0.283-0.317-0.576-0.633-0.85-0.98c-0.172-0.22-0.373-0.432-0.534-0.669c-0.16-0.24-0.276-0.502-0.452-0.781
		c-0.048-0.08-0.144-0.156-0.197-0.243c-0.24-0.372-0.435-0.839-0.524-1.205c0.627,0.792,1.311,1.478,1.976,2.197
		c0.218,0.232,0.487,0.456,0.698,0.691c0.512,0.559,0.879,1.126,1.424,1.792c0.088,0.111,0.328,0.413,0.441,0.41
		c0.267-0.007-0.068-0.73-0.219-1.036c-0.158-0.316-0.34-0.657-0.453-0.873c-0.242-0.454-0.645-0.854-0.946-1.304
		c-0.273-0.415-0.517-0.656-0.781-1.001c-0.095-0.125-0.161-0.269-0.251-0.388c-0.21-0.278-0.454-0.525-0.621-0.789
		c-0.422-0.66-0.824-1.466-0.932-2.144c0.088,0.21,0.122,0.431,0.216,0.634c0.306,0.672,0.74,1.25,1.096,1.802
		c0.084,0.124,0.123,0.257,0.201,0.378c0.308,0.484,0.756,0.884,1.059,1.326c0.262,0.373,0.438,0.701,0.729,1.041
		c0.162,0.188,0.41,0.376,0.615,0.558c0.41,0.365,0.77,0.609,1.18,0.867c0.182,0.114,0.376,0.221,0.55,0.333
		c0.271,0.173,0.5,0.385,0.748,0.593c0.068,0.057,0.175,0.093,0.231,0.146c0.174,0.162,0.308,0.351,0.485,0.503
		c0.232,0.196,0.476,0.369,0.684,0.51c0.466,0.317,1.02,0.556,1.538,0.58c0.827,0.39,1.701-0.203,2.531,0.174
		c0.371,0.273,0.769,0.738,1.201,0.869c0.089,0.026,0.262,0.031,0.408,0.051c0.415,0.058,0.907,0.051,1.266,0.033
		c0.371-0.018,0.738-0.108,1.124-0.084c0.227,0.017,0.518,0.077,0.747,0.157c0.3,0.106,0.616,0.366,0.901,0.499
		c0.653,0.3,1.206,0.374,1.914,0.5c0.332-0.033,0.672,0.053,0.971,0.103c0.27,0.045,0.501,0.11,0.756,0.167
		c0.463,0.104,0.865,0.182,1.284,0.329c0.448,0.16,0.865,0.362,1.31,0.608c0.821,0.455,1.731,0.691,2.665,0.65
		c0.099,0.029,0.199,0.08,0.297,0.086c0.538-0.134,1.081-0.092,1.615-0.204c0.595-0.197,1.181-0.311,1.769-0.269
		c0.227,0.015,0.457,0.004,0.654,0.022c0.457,0.045,0.909,0.216,1.373,0.137c0.505,0.045,1.012,0.086,1.492,0.106
		c0.172,0.004,0.328-0.032,0.493-0.025c0.229,0.005,0.454,0.048,0.666,0.054c0.227,0.01,0.455-0.018,0.673-0.019
		c0.902-0.015,1.777-0.137,2.635-0.328c0.421-0.095,0.844-0.239,1.276-0.368c0.827-0.246,1.689-0.463,2.506-0.771
		c0.389-0.146,0.812-0.255,1.234-0.383c0.594-0.178,1.171-0.369,1.737-0.532c1.156-0.333,2.27-0.688,3.503-0.844
		c0.555-0.183,1.099-0.284,1.621-0.518c0.522-0.232,0.965-0.584,1.512-0.78c0.136-0.099,0.296-0.155,0.424-0.279
		c1.02-0.431,1.926-1.034,2.87-1.576c0.479-0.271,0.993-0.461,1.477-0.718c0.496-0.262,0.919-0.593,1.408-0.855
		c0.285-0.229,0.607-0.395,0.925-0.59c0.309-0.187,0.588-0.43,0.896-0.619c0.105-0.065,0.25-0.104,0.358-0.176
		c0.222-0.147,0.436-0.323,0.648-0.487c0.328-0.25,0.653-0.433,0.938-0.691c0.203-0.185,0.38-0.317,0.581-0.471
		c0.183-0.14,0.325-0.318,0.521-0.421c0.625-0.627,1.232-1.263,1.952-1.78c0.174-0.306,0.509-0.44,0.745-0.65
		c0.105-0.097,0.204-0.242,0.304-0.349c0.273-0.292,0.471-0.543,0.708-0.875c0.128-0.182,0.293-0.358,0.398-0.536
		c0.141-0.241,0.253-0.516,0.378-0.775c0.119-0.248,0.281-0.491,0.384-0.766c0.447-0.483,0.707-1.067,1.17-1.52
		c0.133-0.129,0.267-0.256,0.396-0.392c0.913-0.957,1.958-1.869,2.368-3.184l0.127-0.152c-0.094-0.291-0.318,0.02-0.461,0.141
		c-0.218,0.183-0.448,0.312-0.641,0.479c-0.305,0.27-0.563,0.559-0.816,0.827c-0.087,0.092-0.191,0.178-0.282,0.267
		c-0.182,0.185-0.296,0.415-0.461,0.638c-0.094,0.128-0.228,0.219-0.332,0.359c-0.12,0.166-0.215,0.38-0.361,0.552
		c-0.139,0.169-0.294,0.319-0.423,0.498c-0.29,0.406-0.5,0.926-0.856,1.281c-0.172,0.171-0.426,0.3-0.63,0.451
		c-0.208,0.158-0.394,0.324-0.591,0.495c-0.19,0.169-0.43,0.291-0.623,0.449c-0.097,0.078-0.173,0.185-0.266,0.261
		c-0.103,0.086-0.227,0.146-0.321,0.229c-0.087,0.075-0.144,0.184-0.23,0.26l-0.192,0.118c-0.247,0.213-0.426,0.501-0.662,0.74
		c-0.629,0.489-1.262,0.973-1.839,1.525c-0.408,0.058-0.83,0.301-1.179,0.356l-0.186,0.024c-0.632,0.162-2.058,0.484-4.042,0.566
		l-0.025,0.046c0.256,0.075,0.578,0.232,0.878,0.383c0.278,0.066,0.53,0.144,0.66,0.326l-0.265,0.01
		c-1.396,0.02-2.056,0.057-2.483,0.112c0.411,0.163,0.846,0.308,1.179,0.407c0.201,0.03,0.394,0.064,0.534,0.154
		c-0.162,0.152-0.506,0.165-0.775,0.151c-0.572,0.078-1.481,0.152-2.778,0.08c0.583,0.283,1.361,0.497,1.361,0.497l-0.069,0.015
		l0.106,0.036c-0.124,0.017-0.259,0.03-0.395,0.034c-0.413,0.09-1.118,0.221-1.737,0.237l0.067,0.056
		c0.22,0.16,0.68,0.139,0.918,0.304c-0.337,0.097-0.748,0.067-1.014,0.296c-0.127,0.236-0.348,0.409-0.428,0.648
		c-0.16,0.167-0.321,0.375-0.464,0.472c-0.364,0.25-0.921,0.504-1.377,0.689c-0.323,0.129-0.615,0.164-1.003,0.137
		c-0.383-0.026-0.792-0.049-1.139-0.134c-0.548-0.056-1.244-0.157-2.046-0.327l-0.023,0.048l-0.006,0.036
		c0.346,0.168,1.125,0.386,1.75,0.579l-0.055,0.016c0.497,0.113,0.975,0.248,1.253,0.428c-0.274,0.099-0.553,0.034-0.846-0.055
		c-0.706-0.099-2.381-0.245-3.646-0.559l-0.062,0.047c0.475,0.275,1.705,0.765,2.137,0.97l-0.095-0.009
		c0.133,0.034,0.293,0.075,0.303,0.172c-0.229-0.011-0.488-0.085-0.727-0.119c-0.305,0.012-0.935-0.026-2.534-0.435l-0.096,0.077
		c0.186,0.125,0.467,0.287,0.769,0.451c0.138,0.048,0.276,0.091,0.398,0.142c0.209,0.084,0.38,0.218,0.566,0.312
		c0.193,0.093,0.428,0.14,0.545,0.305c-0.128-0.019-0.26-0.044-0.39-0.075c-0.542-0.063-1.774-0.233-3.583-0.792l-0.044,0.037
		c0.354,0.213,1.035,0.583,1.629,0.873c0.447,0.168,0.915,0.326,1.12,0.515c-0.119-0.032-0.243-0.071-0.368-0.111
		c-1.541-0.266-2.725-0.445-3.833-0.771l-0.091,0.062c0.272,0.189,0.635,0.384,0.985,0.555c0.314,0.117,0.628,0.238,0.924,0.417
		c0.087,0.036,0.138,0.057,0.138,0.057l-0.033,0.01l0.07,0.053c-0.178,0.052-0.391,0.035-0.58-0.011
		c-0.216,0-0.513-0.016-0.917-0.07c-0.165-0.014-0.327-0.044-0.498-0.082c-0.689-0.116-1.607-0.322-2.807-0.696
		c0.258,0.378,1.27,0.984,2.003,1.395l-0.062-0.013l0.127,0.085c-0.122-0.033-0.185-0.046-0.264-0.098
		c-0.746-0.114-1.645-0.29-2.249-0.466l-0.102,0.053c0.298,0.179,0.571,0.353,0.803,0.503c0.105,0.043,0.206,0.096,0.296,0.147
		c0.14,0.084,0.268,0.183,0.318,0.294c-0.562-0.03-1.059-0.455-1.582-0.668c-0.252-0.103-0.517-0.141-0.771-0.256
		c-0.453-0.104-0.831,0.105-1.255,0.142c-0.296,0.02-0.616-0.112-0.917-0.177c-0.212-0.045-0.443-0.029-0.655-0.063
		c-0.199-0.035-0.366-0.082-0.565-0.103c-0.571-0.057-1.129-0.038-1.674-0.137c-0.568,0.021-1.011-0.051-1.56,0.077
		c-0.299,0.068-0.622,0.13-0.913,0.21c-0.452,0.121-0.935,0.324-1.38,0.452c-0.154,0.045-0.328,0.126-0.472,0.138
		c-0.142,0.013-0.349-0.022-0.571-0.081l0.029,0.018c-0.103-0.021-0.238-0.067-0.411-0.135c-0.223-0.086-0.427-0.178-0.567-0.251
		l-0.204-0.125c-0.631-0.341-1.517-0.887-2.698-1.771l-0.062,0.015c0.316,0.501,0.781,1.089,1.228,1.623
		c0.337,0.314,0.629,0.62,0.785,0.933c-0.365-0.127-0.708-0.323-1.042-0.581c-0.781-0.468-1.725-1.096-2.612-1.765l-0.022,0.026
		c0.067,0.092,0.147,0.193,0.229,0.297c0.35,0.386,0.637,0.743,1.051,1.138c0.081,0.085,0.098,0.087,0.192,0.136
		c0.134,0.277,0.687,0.518,0.649,0.792l-0.019-0.005l-0.121-0.082c-1.457-0.862-2.874-1.776-4.163-2.848l-0.034,0.009
		c0.223,0.294,0.518,0.662,0.806,0.995c0.268,0.287,0.525,0.588,0.766,0.854c0.114,0.12,0.185,0.188,0.176,0.18l-0.013-0.006
		l0.104,0.114c-0.121-0.085-0.241-0.166-0.364-0.246c-0.538-0.272-1.811-0.952-2.896-1.901l-0.125-0.056
		c0.145,0.392,0.369,0.844,0.554,1.183c0.162,0.185,0.295,0.375,0.349,0.574l-0.056-0.06c-0.144-0.114-1.884-1.548-2.851-2.508
		l-0.039,0.011c0.113,0.247,0.251,0.522,0.389,0.779l0.076,0.122l0.107,0.222c0.102,0.188,0.193,0.346,0.265,0.474
		c0.072,0.084,0.129,0.159,0.129,0.232v0.003c-0.033-0.025-1.504-0.935-2.562-1.914l-0.085,0.017
		c0.067,0.426,0.122,0.911-0.07,1.139l-0.07,0.113c-0.202,0.078-0.292,0.091-0.51,0.094c-0.332,0.005-0.639,0.001-0.933-0.081
		c-0.33-0.087-0.886-0.284-1.164-0.446c-0.515-0.295-1.257-1.002-1.025-1.465c0.193-0.389,0.924-0.443,1.456-0.529
		c0.112-0.017,0.568-0.042,0.52-0.202l-0.065-0.021c-1.159-0.294-3.368-0.347-3.712-0.365l-0.047-0.001l0.046-0.063
		c0.084-0.11,0.158-0.225,0.32-0.328l0.1-0.056c0.095-0.081,0.213-0.178,0.353-0.293l-0.015-0.031
		c-0.429,0.06-1.401,0.267-1.401,0.267l0.142-0.174c0.129-0.127,0.36-0.295,0.725-0.413l-0.014-0.035
		c-0.253,0.002-0.536,0.017-0.826,0.024c-0.184,0.028-0.364,0.059-0.537,0.111c-0.096,0.025-0.16,0.096-0.247,0.12
		c-0.163,0.044-0.43,0.054-0.571,0.035c-0.163-0.022-0.399-0.148-0.487-0.323c-0.074-0.261,0.903-0.252,1.671-0.438l-0.033-0.028
		c-1.356-0.115-2.292-0.497-2.86-0.837c-0.291-0.126-0.631-0.22-0.75-0.593l0.118,0.021c0.396,0.042,0.763,0.14,1.127,0.244
		c0.368,0.064,0.809,0.114,1.3,0.129l-0.02-0.049c-1.646-0.585-2.538-1.1-3.066-1.485c-0.36-0.178-0.722-0.424-0.853-0.791
		c0,0,0.814,0.167,1.703,0.413c-1.011-0.737-1.575-1.299-1.897-1.689c-0.116-0.085-0.227-0.186-0.314-0.295
		c-0.087-0.115-0.234-0.391-0.168-0.537c0.522,0.179,0.841,0.762,1.33,1.009l0.041,0.04c1.746,1.11,3.509,2.188,5.07,3.596
		c-0.072-0.21-0.104-0.402-0.194-0.605c-0.253-0.549-0.759-0.807-1.159-1.157c-0.147-0.134-0.283-0.237-0.457-0.355
		c-0.166-0.116-0.317-0.265-0.468-0.352c-0.405-0.233-0.83-0.469-1.215-0.71c-0.33-0.214-0.666-0.399-0.918-0.646
		c0.308-0.003,0.554,0.107,0.815,0.224c0.192,0.09,0.375,0.216,0.549,0.312c0.391,0.209,0.772,0.363,1.148,0.534
		c0.554,0.389,1.156,0.673,1.694,1.182c0.133,0.126,0.417,0.473,0.563,0.405c0.135-0.063-0.04-0.256-0.125-0.346
		c-0.29-0.299-0.434-0.379-0.696-0.598c-0.36-0.298-0.767-0.579-1.131-0.761c-0.336-0.279-0.682-0.519-1.026-0.765
		c-0.188-0.085-0.362-0.209-0.525-0.349c-0.162-0.113-0.427-0.178-0.512-0.335c0.578,0.032,1.094,0.431,1.627,0.611
		c0.064,0.087,0.164,0.094,0.233,0.172c0.618,0.243,1.142,0.727,1.758,0.967c0.069,0.079,0.142,0.142,0.239,0.151
		c0.252,0.338,0.641,0.588,0.932,0.878c0.125,0.127,0.207,0.328,0.413,0.341l0.081-0.146c-1.941-2.439-3.911-3.626-6.79-4.479
		c-0.118-0.013-0.199-0.004-0.314-0.033l-0.082-0.064l-0.131-0.001c-0.093-0.038-0.204-0.111-0.298-0.155
		c-0.162-0.065-0.242-0.075-0.295-0.18c-0.11-0.206-0.055-0.487,0.006-0.611c0.109-0.225,0.542-0.494,0.86-0.565
		c0.22-0.046,0.488,0,0.698-0.065c0.231-0.074,0.396-0.182,0.552-0.308c0.588-0.322,1.093-0.835,1.923-0.845
		c0.454-0.004,0.92,0.082,1.348,0.004c0.32-0.061,0.618-0.146,0.942-0.2c0.228-0.039,0.482-0.017,0.649-0.02
		c0.256-0.001,0.501-0.053,0.741-0.061c0.25-0.007,0.511,0.056,0.756,0.059c0.292,0.002,0.53-0.027,0.796,0.02
		c0.767,0.128,1.495,0.346,2.211,0.602c1.02,0.139,1.899,0.538,2.801,0.936c0.619,0.271,1.189,0.618,1.793,0.984
		c0.511,0.309,0.985,0.695,1.521,0.976c0.381,0.202,0.798,0.343,1.178,0.484c0.472,0.177,1.069,0.384,1.537,0.428
		c0.161,0.014,0.282-0.066,0.449-0.09c0.289-0.045,0.639,0,0.947-0.041c0.23-0.03,0.468-0.124,0.686-0.111
		c0.258,0.016,0.488,0.153,0.771,0.199l0.103,0.12c0.093,0.035,0.233-0.021,0.284,0.11c0.387,0.048,0.765,0.177,1.131,0.334
		c0.169,0.076,0.336,0.211,0.51,0.268c0.139,0.049,0.345,0.042,0.523,0.07c0.186,0.027,0.364,0.06,0.538,0.078
		c0.372,0.041,0.74,0.096,1.079,0.092c0.179-0.001,0.343-0.02,0.524,0.003c0.597,0.072,1.223,0.109,1.792,0.082
		c0.26,0.08,0.516,0.152,0.773,0.224c0.495,0.141,0.928,0.165,1.372,0.138c0.167-0.011,0.34-0.063,0.514-0.132
		c0.327-0.13,0.646-0.258,0.96-0.343c0.098-0.022,0.206-0.062,0.304-0.072c0.276-0.028,0.544,0.116,0.839,0.218l0.251,0.044
		c0.862,0.279,1.698,0.473,2.398,0.078c0.301-0.063,0.6-0.126,0.893-0.223c0.371-0.047,0.745,0.01,1.126-0.002l0.288-0.036
		c0.102-0.006,0.202,0.02,0.31,0.025c0.196,0.012,0.405-0.016,0.604,0c0.563,0.046,1.21,0.221,1.71,0.079
		c0.074-0.123,0.197-0.094,0.269-0.208c0.586-0.082,0.794-0.724,1.222-1.032c0.214-0.157,0.609-0.263,0.887-0.274
		c0.274-0.011,0.41,0.02,0.677,0.063c0.126,0.02,0.289-0.014,0.37,0.012l0.098,0.075c0.145,0.026,0.32-0.055,0.375,0.099
		c0.167-0.101,0.371-0.013,0.555-0.059c0.126-0.033,0.263-0.15,0.411-0.235c0.422-0.237,0.905-0.444,1.293-0.644
		c0.604-0.31,1.213-0.399,1.766-0.752c0.458-0.17,0.95-0.291,1.417-0.458c0.221-0.004,0.425-0.023,0.601-0.104
		c0.765-0.027,1.443-0.278,2.048-0.568c0.141-0.067,0.261-0.175,0.394-0.246c0.122-0.064,0.26-0.084,0.367-0.148
		c0.238-0.142,0.478-0.366,0.602-0.625c0.432-0.361,0.67-0.92,1.031-1.325c0.107-0.117,0.369-0.376,0.495-0.424
		c0.522-0.202,1.4-0.211,1.849-0.507c0.297-0.077,0.526-0.188,0.747-0.375c0.204-0.178,0.361-0.452,0.58-0.596
		c0.097-0.066,0.232-0.106,0.34-0.166c0.106-0.063,0.204-0.149,0.304-0.2c0.709-0.361,1.486-0.446,2.331-0.688
		c0.25-0.07,0.466-0.271,0.767-0.295c0.336-0.193,0.601-0.356,0.866-0.577c0.25-0.208,0.417-0.379,0.703-0.558
		c0.283-0.183,0.632-0.352,0.971-0.461c0.189-0.06,0.446-0.058,0.675-0.09c0.197-0.026,0.426-0.065,0.589-0.051
		c0.204,0.014,0.391,0.108,0.586,0.133c0.152,0.015,0.312-0.035,0.459-0.033c0.397,0.003,0.966-0.003,1.071,0.294
		c0.133,0.397,0.115,1.065,0.386,1.412c0.069,0.087,0.238,0.206,0.362,0.286c0.115,0.075,0.399,0.148,0.397,0.292
		c0.003,0.397-0.055,0.675,0.094,0.951c0.061,0.113,0.219,0.157,0.25,0.313c0.038,0.183-0.042,0.293-0.082,0.426
		c-0.088,0.307-0.163,0.525-0.272,0.762c-0.137,0.301-0.34,0.657-0.547,0.88c-0.076,0.081-0.183,0.151-0.265,0.234
		c-0.465,0.473-1.027,1.054-1.495,1.565c-0.542,0.591-0.796,1.329-1.063,2.017c-0.231,0.599-0.599,1.037-1.005,1.651
		c-0.474,0.533-1.07,1.246-1.672,1.736c-0.181,0.147-0.331,0.256-0.188,0.374c0.486-0.05,0.775-0.307,1.169-0.46
		c0.534-0.41,1.005-1.044,1.431-1.617c0.094-0.224,0.263-0.414,0.387-0.625c0.204-0.352,0.301-0.709,0.488-1.021
		c0.199-0.33,0.351-0.583,0.613-0.871c0.196-0.217,0.406-0.465,0.613-0.63c0.095-0.19,0.257-0.319,0.405-0.465
		c0.243-0.237,0.39-0.531,0.64-0.738c0.309-0.49,0.62-0.993,0.912-1.489c0.054-0.096,0.146-0.173,0.204-0.266
		c0.123-0.192,0.171-0.42,0.355-0.54c0.055-0.181,0.175-0.312,0.327-0.422c0.07,0.915-0.45,1.598-0.852,2.22
		c-0.121,0.188-0.222,0.379-0.353,0.53C145.616,322.548,145.034,322.846,144.763,323.307z M99.557,339.521
		c1.572,0.208,3.176-0.033,4.583-0.699c0.439-0.118,0.874-0.118,1.312-0.079l0.266-0.026c0.282,0.024,0.553,0.117,0.824,0.187
		c0.294,0.074,0.667,0.058,0.904,0.257c0.323-0.005,0.572,0.159,0.893,0.277c0.193,0.07,0.468,0.005,0.633,0.152
		c0.257-0.001,0.515,0.004,0.785,0.056c0.323-0.069,0.673-0.032,1.01-0.03c0.675-0.138,1.351-0.25,2.039-0.311
		c0.101-0.068,0.285-0.074,0.427-0.104c0.134-0.029,0.319-0.106,0.378-0.052l-0.092,0.017l-0.102,0.061
		c-1.013,0.323-2.076,0.489-3.159,0.524c-0.064-0.047-0.105,0.012-0.17-0.051c-0.373,0.036-0.739,0.063-1.14-0.081
		c-0.237-0.002-0.552-0.037-0.748-0.13c-0.396-0.003-0.812-0.146-1.22-0.262c-0.306-0.034-0.535-0.059-0.831-0.061
		c-0.257-0.004-0.55-0.046-0.762-0.014c-0.58,0.095-1.304,0.202-1.866,0.375c-0.115,0.036-0.213,0.107-0.327,0.138
		c-0.214,0.061-0.479,0.028-0.657,0.15c-0.652-0.001-1.293,0.213-1.949,0.098C100.252,339.784,99.835,339.74,99.557,339.521z
		 M123.461,336.668c0.172-0.126,0.37-0.193,0.559-0.282c0.788-0.439,1.521-0.979,2.271-1.462l0.101-0.115
		c0.477-0.268,0.899-0.626,1.36-0.846c0.481-0.231,1.002-0.387,1.482-0.577c0.173-0.067,0.325-0.167,0.498-0.251
		c0.09-0.042,0.201-0.062,0.308-0.109c0.102-0.051,0.195-0.128,0.292-0.165c0.128-0.056,0.265-0.066,0.378-0.127
		c0.234-0.124,0.423-0.319,0.65-0.44l0.238-0.091c0.289-0.152,0.53-0.398,0.822-0.566c0.257-0.039,0.381-0.218,0.579-0.356
		c0.493-0.342,1.029-0.618,1.473-0.986c0.305-0.097,0.483-0.329,0.713-0.51c0.282-0.221,0.537-0.395,0.819-0.592
		c0.124-0.087,0.248-0.17,0.343-0.295c0.669-0.354,1.175-0.894,1.83-1.266c-0.309,0.369-0.7,0.627-1.081,0.922
		c-0.509,0.392-0.975,0.834-1.501,1.183c-0.406,0.417-0.895,0.732-1.38,1.052c-0.222,0.3-0.59,0.372-0.873,0.573
		c-0.156,0.111-0.291,0.228-0.45,0.328c-0.32,0.204-0.61,0.421-0.934,0.604c-0.255,0.147-0.452,0.356-0.722,0.419
		c-0.315,0.286-0.771,0.344-1.086,0.631c-0.4,0.146-0.779,0.327-1.137,0.544c-0.245,0.054-0.454,0.167-0.65,0.297
		c-0.265,0.086-0.501,0.194-0.771,0.344c-0.19,0.102-0.403,0.24-0.567,0.354C125.912,335.643,124.761,336.294,123.461,336.668z
		 M145.93,325.801c-0.117,0.017-0.189-0.159-0.237-0.256c-0.219-0.448,0.052-0.782,0.445-1.083c0.113-0.016,0.287-0.084,0.336-0.081
		c0.379-0.027,0.524,0.179,0.488,0.444c-0.016,0.129-0.186,0.442-0.331,0.581C146.458,325.566,146.062,325.783,145.93,325.801z"/>
	<path fill="#151A47" d="M115.781,330.604c-0.141-0.202-0.433-0.093-0.665-0.085c-0.543,0.022-1.002,0.135-1.536,0.142
		c-0.135,0.087-0.353,0.064-0.374,0.29c0.281,0.302,0.627,0.382,0.991,0.38c0.547-0.003,0.921-0.154,1.362-0.471
		C115.67,330.779,115.798,330.74,115.781,330.604z"/>
	<path fill="#151A47" d="M141.195,322.052l-0.04,0.022c-0.289,0.446-0.6,0.873-0.974,1.239c-0.839,0.813-1.942,1.373-2.836,2.139
		c-0.299,0.258-0.507,0.561-0.795,0.854c-0.073,0.182-0.217,0.345-0.296,0.563c-0.072,0.188-0.072,0.404-0.208,0.537
		c0.105,0.348,0.413-0.017,0.588-0.224c0.146-0.17,0.268-0.329,0.374-0.442c0.262-0.281,0.529-0.556,0.772-0.806
		c0.379-0.393,0.863-0.745,1.301-1.083c0.292-0.227,0.549-0.4,0.819-0.67c0.118-0.119,0.246-0.218,0.355-0.335l0.134-0.201
		c0.232-0.254,0.523-0.458,0.685-0.715c0.077-0.121,0.125-0.426,0.193-0.59c0.039-0.089,0.134-0.151,0.088-0.233L141.195,322.052z"
		/>
	<path fill="#151A47" d="M138.146,319.236c0.261-0.263,0.488-0.63,0.81-0.768c0.186-0.077,0.409-0.118,0.604-0.176
		c1.114-0.346,2.382-0.715,2.927-1.726c0.081-0.057,0.169-0.113,0.24-0.182c0.374-0.166,0.605-0.059,0.921-0.144l0.062-0.167
		c-0.001-0.075-0.196-0.256-0.317-0.318c-0.106-0.052-0.277-0.05-0.429-0.071c-0.168-0.023-0.323-0.105-0.478-0.063
		c-0.382,0.098-0.766,0.331-1.086,0.486c-0.121,0.06-0.258,0.079-0.364,0.137c-0.138,0.077-0.285,0.203-0.412,0.305
		c-0.429,0.345-0.907,0.65-1.518,0.861c-0.137,0.05-0.266,0.139-0.385,0.171c-0.35,0.099-0.684,0.141-0.977,0.232
		c-0.108,0.034-0.228,0.109-0.338,0.153c-0.101,0.042-0.226,0.068-0.315,0.11c-0.328,0.151-0.597,0.444-0.874,0.686
		c-0.434,0.386-0.735,0.834-1.273,1.089c-0.153,0.072-0.374,0.082-0.49,0.138c-0.311,0.147-0.672,0.403-0.934,0.643
		c-0.251,0.23-0.369,0.364-0.542,0.729c-0.036,0.078-0.086,0.17-0.129,0.247c-0.147,0.265-0.441,0.571-0.787,0.685
		c-0.132,0.044-0.286,0.07-0.431,0.112c-0.4,0.117-0.835,0.097-1.216,0.284c-0.075,0.034-0.163,0.112-0.253,0.168
		c-0.092,0.061-0.209,0.086-0.276,0.128c-0.179,0.114-0.328,0.302-0.49,0.417c-0.214,0.15-0.458,0.293-0.685,0.427
		c-0.228,0.139-0.49,0.243-0.725,0.349c-0.497,0.224-0.957,0.505-1.446,0.697c-0.721,0.35-1.392,0.663-2.201,0.969
		c-0.104,0.042-0.213,0.083-0.368,0.144c-0.091,0.034-0.324,0.067-0.349,0.178c-0.045,0.207,0.36,0.083,0.429,0.069
		c0.571-0.124,0.997-0.262,1.499-0.409c0.697-0.198,1.356-0.468,1.971-0.712c0.31-0.123,0.624-0.307,0.926-0.469
		c0.312-0.17,0.626-0.315,0.923-0.476c0.314-0.168,0.599-0.347,0.917-0.497c0.31-0.144,0.687-0.255,1.046-0.314
		c0.263-0.045,0.53,0.002,0.751-0.047l0.194-0.075c0.515-0.147,0.959-0.54,1.333-0.938c0.365-0.391,0.703-0.788,0.962-1.114
		c0.297-0.203,0.602-0.394,0.918-0.576c0.602-0.182,1.146-0.449,1.739-0.673C137.53,319.68,137.857,319.528,138.146,319.236z"/>
	<path fill="#151A47" d="M135.041,326.807c-0.365-0.03-0.571-0.368-0.445-0.803c-0.163-0.316-0.604,0.368-0.614,0.592l0.021,0.24
		c-0.006,0.31,0.091,0.598,0.214,0.726c0.308,0.079,0.836-0.15,1.097-0.416c0.095-0.099,0.2-0.229,0.162-0.316
		C135.432,326.728,135.226,326.825,135.041,326.807z"/>
	<path fill="#151A47" d="M112.22,334.196c-0.428-0.02-0.769,0.206-1.218,0.16c-0.656-0.07-1.549-0.521-1.388-1.065
		c0.143-0.497,0.865-0.785,1.202-0.942c0.165-0.078,0.28-0.164,0.478-0.22c0.163-0.046,0.685-0.089,0.509-0.332l-0.016-0.011
		c-0.309-0.17-0.675-0.283-0.943-0.328c-0.751-0.126-1.489,0.132-2.134,0.718c-0.588,0.537-1.095,0.958-1.774,1.002
		c-0.335,0.022-0.692-0.038-1.104-0.101c-1.111,0.018-2.281-0.042-3.414-0.033c-0.846,0.009-1.696-0.06-2.529,0.065
		c-0.389,0.128-0.888,0.199-1.194,0.52c0.037,0.083,0.076,0.124,0.171,0.183l0.201-0.03c0.3,0.043,0.592-0.018,0.894-0.018
		c0.587-0.008,1.179-0.014,1.787,0.018c0.294,0.014,0.608-0.009,0.876,0.021c0.186,0.021,0.349,0.059,0.549,0.074
		c0.355,0.022,0.75,0.015,1.123-0.003c0.261-0.014,0.53-0.007,0.784-0.066c0.086,0.035,0.167,0.044,0.245-0.006
		c0.385,0.063,0.78,0.155,1.165,0.151c0.211,0.141,0.497,0.166,0.737,0.195c-0.045,0.157-0.267,0.217-0.406,0.235
		c-0.264,0.033-0.629,0.008-0.947-0.016c-0.8-0.07-1.542-0.073-2.34-0.116c-0.45-0.024-0.933-0.03-1.409-0.11
		c-0.313-0.052-0.625-0.147-0.93-0.163c-0.647-0.035-1.219,0.089-1.869,0.042c-0.234,0.073-0.383,0.09-0.612,0.151
		c-0.178,0.14-0.492,0.198-0.461,0.414c0.017,0.126,0.162,0.149,0.315,0.271c0.394-0.049,0.788,0.028,1.14,0.042
		c0.545,0.025,1.027-0.03,1.496,0.023c0.49,0.055,0.962,0.212,1.51,0.45l0.39,0.071c0.403,0.032,0.815-0.071,1.204-0.094
		c1.03,0.21,2.058,0.199,3.031-0.083c0.233-0.036,0.475,0.006,0.714,0.022c0.736,0.298,1.552,0.53,2.255,0.344
		c0.662,0.105,1.874-0.286,2.211-1.004C112.641,334.364,112.55,334.211,112.22,334.196z"/>
	<path fill="#151A47" d="M92.056,333.383c-0.149-0.256-0.463-0.466-0.683-0.647c-0.112-0.096-0.271-0.426-0.282-0.557
		c-0.013-0.125,0.105-0.328,0.226-0.407c0.286-0.194,0.537-0.091,0.846-0.182l0.032-0.125c-0.159-0.126-0.234-0.309-0.326-0.435
		c-0.125-0.029-0.322-0.167-0.486-0.192c-0.124-0.015-0.301,0.037-0.494,0.071c-0.296,0.05-0.635,0.005-0.871,0.088
		c-0.237,0.083-0.495,0.21-0.61,0.322l-0.058,0.136c-0.093,0.136-0.11,0.304-0.131,0.514c0.162,0.549,0.719,1.137,1.352,1.093
		c0.227,0.144,0.482,0.241,0.72,0.402c0.24,0.161,0.474,0.342,0.74,0.512c0.107-0.012,0.143-0.04,0.198-0.109
		c-0.027-0.144-0.105-0.219-0.177-0.371L92.056,333.383z"/>
	<path fill="#151A47" d="M97.041,330.363c0.137-0.072,0.759,0.125,0.544-0.221c-0.109-0.176-0.706-0.464-0.801-0.478
		c-0.092-0.013-0.278,0.052-0.36,0.099c-0.473,0.27-0.886,0.839-1.05,1.325c0.064,0.14,0.003,0.265,0.094,0.399
		c0.179,0.262,0.613,0.406,0.844,0.625c0.103-0.016,0.26,0.109,0.401,0.164c0.227,0.084,0.807,0.215,0.907,0.052
		c0.104-0.169-0.666-0.808-0.812-1.099C96.685,330.987,96.727,330.519,97.041,330.363z"/>
	<path fill="#151A47" d="M85.723,330.033c-0.157-0.045-0.324-0.13-0.478-0.147c-0.79-0.092-1.581,0.164-1.981,0.658l-0.069,0.167
		c-0.122,0.176-0.325,0.381-0.098,0.713c0.097,0.139,0.281,0.273,0.435,0.362c0.119,0.062,0.23,0.146,0.333,0.179
		c0.133,0.046,0.283,0.015,0.417,0.046c0.352,0.076,0.74,0.368,1.09,0.238c0.1-0.09-0.021-0.193-0.083-0.333
		c-0.149-0.323-0.08-0.806,0.156-1.042c0.199-0.199,0.47-0.336,0.784-0.414c0.072-0.145-0.057-0.196-0.136-0.34
		C85.972,330.07,85.847,330.069,85.723,330.033z"/>
	<path fill="#151A47" d="M84.251,329.213c-0.124-0.042-0.249-0.084-0.357-0.181c-0.617-0.167-1.817-0.054-1.685,0.668
		c-0.149,0.415-0.434,0.774-0.313,1.307c0.104,0.136,0.208,0.28,0.357,0.286c0.139-0.128,0.106-0.329,0.175-0.486
		c0.16-0.12,0.231-0.277,0.261-0.453c0.243-0.434,0.768-0.938,1.563-0.892C84.283,329.394,84.356,329.337,84.251,329.213z"/>
	<path fill="#151A47" d="M98.507,328.737l0.22,0.106c0.217,0.068,0.47,0.084,0.659,0.173c0.396,0.187,0.842,0.245,1.24,0.483
		c0.844,0.193,1.684,0.328,2.532,0.446c0.839,0.117,1.679,0.073,2.515,0.072c0.167-0.058,0.333-0.153,0.507-0.121l0.069-0.102
		c0.367-0.039,0.645-0.204,0.975-0.289c0.297-0.074,0.618-0.086,0.913-0.123c0.158-0.022,0.302-0.038,0.457-0.046
		c0.214-0.013,0.431,0.015,0.643-0.053c0.635,0.009,1.3-0.079,1.935-0.201c0.309-0.059,0.576-0.178,0.868-0.203
		c0.86-0.072,1.759-0.102,2.661-0.197l0.077-0.163c-0.135-0.082-0.243-0.098-0.374-0.109c-0.33-0.036-0.71-0.032-1.055-0.04
		c-0.355-0.009-0.711-0.054-1.04-0.048c-0.409,0.01-0.833,0.096-1.241,0.134c-0.211,0.019-0.421,0.057-0.616,0.085
		c-0.211,0.029-0.402,0.092-0.611,0.134c-0.67,0.122-1.431,0.031-2.144,0.043c-0.353,0.007-0.698,0.021-1.046,0.035
		c-0.165,0.006-0.354-0.016-0.536-0.046c-0.18-0.027-0.378-0.031-0.54-0.067c-0.604-0.132-1.276-0.372-1.873-0.406
		c-0.228-0.015-0.503-0.011-0.744,0.01c-0.365,0.033-0.724,0.171-1.101,0.102c-0.722-0.152-1.434-0.658-2.139-0.912
		c-0.076-0.028-0.219-0.024-0.237-0.128l-0.131,0.015c-0.375-0.214-0.756-0.194-1.125-0.406c-0.936-0.169-1.841-0.453-2.77-0.609
		c-0.894-0.144-1.797-0.116-2.704-0.272c-0.558-0.186-1.171-0.175-1.701-0.434c-0.625-0.306-1.053-0.953-1.661-1.204
		c-0.146-0.062-0.318-0.111-0.475-0.165c-0.157-0.055-0.333-0.098-0.485-0.151c-0.567-0.197-1.111-0.423-1.693-0.626
		c-0.752-0.259-1.513-0.501-2.297-0.776c-0.534-0.105-1.035-0.309-1.552-0.478c-0.244,0.011-0.466-0.115-0.702-0.127
		c-0.243-0.011-0.457,0.162-0.744,0.086l-0.059,0.112c0.128,0.257,0.398,0.182,0.572,0.341c0.299,0.041,0.579,0.114,0.841,0.249
		c0.536,0.051,0.995,0.302,1.481,0.495c0.826,0.605,1.801,0.75,2.66,1.306c0.204,0.037,0.396,0.144,0.593,0.238
		c0.551,0.274,1.14,0.57,1.728,0.833c0.077,0.097,0.162,0.154,0.245,0.229c-0.76-0.206-1.509-0.517-2.237-0.897
		c-1.057-0.55-2.271-0.754-3.312-1.398c-0.918-0.339-1.816-0.733-2.719-1.139c-0.156-0.019-0.32-0.032-0.5-0.074l-0.198-0.081
		l-0.283-0.006c-0.2-0.016-0.526-0.043-0.761-0.006c-0.365,0.056-0.601,0.264-0.877,0.448c0.157,0.468,0.647,0.292,1.03,0.332
		c0.155,0.016,0.366,0.068,0.529,0.109c0.302,0.072,0.56,0.146,0.856,0.204c0.179,0.059,0.351,0.151,0.536,0.188
		c0.295,0.164,0.61,0.236,0.913,0.332c0.109,0.034,0.231,0.116,0.348,0.162c0.123,0.049,0.258,0.07,0.363,0.122
		c0.189,0.093,0.366,0.212,0.574,0.301c0.103,0.046,0.205,0.082,0.297,0.13c0.1,0.049,0.185,0.12,0.277,0.16
		c0.17,0.079,0.389,0.111,0.554,0.276c0.292,0.062,0.547,0.226,0.838,0.276c0.482,0.252,0.942,0.592,1.452,0.75
		c0.506,0.26,1.007,0.59,1.566,0.657c0.14,0.109,0.316,0.062,0.459,0.166c0.127-0.001,0.268,0.006,0.394,0.03
		c0.445,0.082,0.883,0.191,1.343,0.212c0.335,0.015,0.675-0.017,1.031-0.013l0.328,0.042l0.251-0.042
		c0.471-0.012,0.931,0.071,1.39,0.078c1.374,0.236,2.753,0.502,4.119,0.85c0.171,0.044,0.342,0.097,0.52,0.097
		c0.204,0.159,0.461,0.154,0.684,0.221c0.092,0.024,0.172,0.106,0.261,0.133l0.067-0.028c0.125,0.025,0.262,0.153,0.401,0.208
		c0.167,0.065,0.329,0.083,0.478,0.157c-0.733-0.091-1.556-0.606-2.323-0.624c-0.894-0.266-1.83-0.363-2.747-0.467
		c-0.308-0.034-0.616-0.092-0.917-0.108c-0.423-0.022-0.848,0-1.27-0.097c-1.014-0.038-1.98,0.01-2.968-0.09
		c-0.483-0.048-0.999-0.232-1.462-0.412c-0.358-0.138-0.7-0.325-1.058-0.497c-0.619-0.295-1.266-0.583-1.881-0.942
		c-1.109-0.49-2.255-0.864-3.377-1.333c-0.536-0.14-1.099-0.396-1.66-0.541c-0.199-0.053-0.3-0.046-0.542-0.074
		c-0.102-0.015-0.235-0.06-0.387,0.02c-0.051,0.13-0.229,0.21-0.189,0.362c0.079,0.274,0.535,0.26,0.734,0.406
		c0.623,0.059,1.161,0.308,1.74,0.443c0.379,0.241,0.829,0.297,1.207,0.55c0.297,0.062,0.583,0.152,0.833,0.35
		c0.566,0.215,1.127,0.484,1.67,0.782c0.537,0.292,1.117,0.521,1.644,0.86c0.267,0.094,0.518,0.253,0.77,0.396
		c0.417,0.077,0.732,0.339,1.124,0.422c0.391,0.086,0.78,0.061,1.2,0.034c0.383-0.023,0.784,0,1.17-0.03
		c0.386-0.03,0.772-0.059,1.147-0.048c0.125-0.036,0.241-0.058,0.375-0.06c0.825,0.001,1.741,0.048,2.628,0.132
		C96.807,328.437,97.708,328.478,98.507,328.737z"/>
	<path fill="#151A47" d="M107.206,336.539c-0.365-0.159-0.572-0.319-0.922-0.347c-0.853-0.355-1.667-0.265-2.475-0.187
		c-0.287,0.03-0.607,0.093-0.867,0.219c-0.964,0.163-1.929,0.786-2.922,0.534c-0.412-0.182-0.868-0.382-1.216-0.671l-0.047-0.088
		c-0.205-0.058-0.32-0.366-0.533-0.364c-0.254,0.054-0.03,0.256,0.128,0.42c0.133,0.142,0.294,0.319,0.447,0.498
		c0.256,0.291,0.693,0.448,0.963,0.616c0.196,0.007,0.39,0.079,0.588,0.128c0.55,0.01,1.002-0.031,1.583-0.17
		c0.868-0.208,1.713-0.625,2.597-0.562c0.27-0.09,0.558-0.001,0.822-0.098c0.297,0.057,0.58-0.017,0.896,0.167
		c0.33,0.113,0.643,0.112,0.945,0.253c0.119-0.041,0.175-0.038,0.247,0.025l0.128-0.162c-0.111-0.029-0.22-0.043-0.327-0.053
		L107.206,336.539z"/>
	<path fill="#151A47" d="M118.817,328.235c0.539-0.113,1.01-0.375,1.508-0.605c0.297-0.138,0.653-0.237,0.96-0.392l0.151-0.082
		c0.244-0.124,0.57-0.181,0.78-0.417c0.217-0.122,0.516-0.071,0.667-0.334c-0.055-0.177-0.384-0.062-0.574-0.044
		c-0.177,0.015-0.337,0.059-0.483,0.023c-0.165,0.103-0.359,0.065-0.534,0.122c-0.191,0.059-0.386,0.182-0.575,0.265
		c-0.193,0.084-0.399,0.13-0.566,0.257c-0.416,0.083-0.855,0.106-1.31,0.076c-0.335,0.087-0.663,0.201-0.981,0.338
		c-0.057,0.144-0.239,0.21-0.27,0.326c-0.033,0.112,0.094,0.133,0.085,0.255C118.021,328.138,118.467,328.249,118.817,328.235z"/>
</g>
</svg>
