<?xml version="1.0" encoding="utf-8"?>
<!-- Generator: Adobe Illustrator 16.0.0, SVG Export Plug-In . SVG Version: 6.00 Build 0)  -->
<!DOCTYPE svg PUBLIC "-//W3C//DTD SVG 1.1//EN" "http://www.w3.org/Graphics/SVG/1.1/DTD/svg11.dtd">
<svg version="1.1" id="Layer_1" xmlns="http://www.w3.org/2000/svg" xmlns:xlink="http://www.w3.org/1999/xlink" x="0px" y="0px"
	 width="88.521px" height="31.186px" viewBox="0 0 88.521 31.186" enable-background="new 0 0 88.521 31.186" xml:space="preserve">
<g>
	<g>
		<g>
			<defs>
				<rect id="SVGID_1_" x="0" y="0" width="88.49" height="31.181"/>
			</defs>
			<clipPath id="SVGID_2_">
				<use xlink:href="#SVGID_1_"  overflow="visible"/>
			</clipPath>
			<g clip-path="url(#SVGID_2_)">
				
					<text transform="matrix(1 0 0 1 -2.441406e-04 13.3928)" fill="#F7FAFC" font-family="'CircularStd-Medium'" font-size="15.6732">B</text>
				<text transform="matrix(1 0 0 1 9.4656 13.3928)" fill="#F7FAFC" font-family="'CircularStd-Medium'" font-size="15.6732">r</text>
				<text transform="matrix(1 0 0 1 15.4705 13.3928)" fill="#F7FAFC" font-family="'CircularStd-Medium'" font-size="15.6732">anding </text>
			</g>
		</g>
	</g>
	<g>
		<g>
			<defs>
				<rect id="SVGID_3_" x="0" y="0" width="88.49" height="31.181"/>
			</defs>
			<clipPath id="SVGID_4_">
				<use xlink:href="#SVGID_3_"  overflow="visible"/>
			</clipPath>
			<g clip-path="url(#SVGID_4_)">
				
					<text transform="matrix(1 0 0 1 -2.441406e-04 27.4553)" fill="#F7FAFC" font-family="'CircularStd-Medium'" font-size="15.6732">&amp;</text>
				<text transform="matrix(1 0 0 1 10.4685 27.4553)" fill="#20164D" font-family="'CircularStd-Medium'" font-size="15.6732"> </text>
				<text transform="matrix(1 0 0 1 14.3552 27.4553)" fill="#F7FAFC" font-family="'CircularStd-Medium'" font-size="15.6732">P</text>
				<text transform="matrix(1 0 0 1 23.446 27.4553)" fill="#F7FAFC" font-family="'CircularStd-Medium'" font-size="15.6732">a</text>
				<text transform="matrix(1 0 0 1 31.7693 27.4553)" fill="#F7FAFC" font-family="'CircularStd-Medium'" font-size="15.6732">c</text>
				<text transform="matrix(1 0 0 1 40.2478 27.4553)" fill="#F7FAFC" font-family="'CircularStd-Medium'" font-size="15.6732">k</text>
				<text transform="matrix(1 0 0 1 48.5857 27.4553)" fill="#F7FAFC" font-family="'CircularStd-Medium'" font-size="15.6732">aging</text>
			</g>
		</g>
	</g>
</g>
</svg>
