<?xml version="1.0" encoding="utf-8"?>
<!-- Generator: Adobe Illustrator 16.0.0, SVG Export Plug-In . SVG Version: 6.00 Build 0)  -->
<!DOCTYPE svg PUBLIC "-//W3C//DTD SVG 1.1//EN" "http://www.w3.org/Graphics/SVG/1.1/DTD/svg11.dtd">
<svg version="1.1" id="Layer_1" xmlns="http://www.w3.org/2000/svg" xmlns:xlink="http://www.w3.org/1999/xlink" x="0px" y="0px"
	 width="27px" height="29px" viewBox="0 0 27 29" enable-background="new 0 0 27 29" xml:space="preserve">
<path fill="#170C51" stroke="#449FDB" stroke-width="0.9194" d="M0,0"/>
<path fill="#170C51" d="M0,24.291h27v-3.482H0V24.291L0,24.291z M0,16.453h27v-3.479H0V16.453L0,16.453z M0,5.13v3.481h27V5.129
	L0,5.13L0,5.13z"/>
</svg>
