<?xml version="1.0" encoding="utf-8"?>
<!-- Generator: Adobe Illustrator 16.0.0, SVG Export Plug-In . SVG Version: 6.00 Build 0)  -->
<!DOCTYPE svg PUBLIC "-//W3C//DTD SVG 1.1//EN" "http://www.w3.org/Graphics/SVG/1.1/DTD/svg11.dtd">
<svg version="1.1" id="Layer_1" xmlns="http://www.w3.org/2000/svg" xmlns:xlink="http://www.w3.org/1999/xlink" x="0px" y="0px"
	 width="27px" height="29px" viewBox="1.5 1.5 27 29" enable-background="new 1.5 1.5 27 29" xml:space="preserve">
<path fill="#F7FAFC" stroke="#449FDB" stroke-width="0.9194" d="M1.5,1.5"/>
<path fill="#F7FAFC" d="M1.5,25.791h27v-3.482h-27L1.5,25.791L1.5,25.791z M1.5,17.953h27v-3.479h-27L1.5,17.953L1.5,17.953z
	 M1.5,6.63v3.481h27V6.629L1.5,6.63L1.5,6.63z"/>
</svg>
