<svg xmlns="http://www.w3.org/2000/svg" xmlns:xlink="http://www.w3.org/1999/xlink" width="144" height="336" viewBox="0 0 144 336"><svg width="17" height="27" viewBox="0 0 17 27" id="icon-location" y="0"><path d="M0-5" stroke="#449fdb"/><path d="M7.955 0S0 0 0 7.955 7.955 25 7.955 25s7.954-9.09 7.954-17.045C15.91 0 7.953 0 7.953 0zm0 11.363c-1.883 0-3.41-1.527-3.41-3.41 0-1.88 1.527-3.406 3.41-3.406 1.883 0 3.41 1.527 3.41 3.41 0 1.88-1.527 3.407-3.41 3.407z" fill="#5e6263"/></svg>
<svg width="39" height="41" viewBox="0 0 39 41" id="logo-marx-about" y="27"><defs><path id="aba" d="M0 0h39v39.645H0z"/></defs><clipPath id="abb"><use xlink:href="#aba" overflow="visible"/></clipPath><path clip-path="url(#abb)" stroke="#20164D" stroke-width="2.065" stroke-linecap="round" stroke-linejoin="round" stroke-miterlimit="10" d="M7.755 30.4S26.623 8.775 18.345 8.363c-2.16-.105-3.438 2.15-3.07 5.562.375 3.52 1.724 8.265 3.823 8.035 4.154-.444 12.38-10.838 8.232-11.283-4.15-.447-4.783 14.093-1.276 16.343 0 0 2.103 2.08 5.952.057 3.84-2.027 7.646-9.408 5.18-14.884-2.394-5.342-7.687-11.16-16.6-11.16-8.917 0-19.552 6.155-19.552 18.027 0 10.73 6.294 19.453 19.46 19.553 7.516.055 11.415-3.5 11.415-3.5" fill="none"/></svg>
<svg viewBox="0 0 57 58" enable-background="new 0 0 57 58" width="57" height="58" id="logo-marx-sm" y="68"><path fill="#F7FAFC" d="M30.3 57.9H30C11.6 57.8.1 46.2.1 27.9.1 10.5 15.4.1 30.1.1c16.1 0 23.3 12 25.6 17.2 4 8.8-2.2 20.2-8.1 23.4-5.8 3.1-9.3.3-9.9-.2-2.3-1.6-3.5-5.9-3.7-10.6-2.2 1.8-4.4 3.1-6 3.2-.8.1-1.6-.2-2.4-.8-.7-.6-1.3-1.4-1.9-2.5C18.9 37.1 13 44 11.8 45.3c-.3.4-.9.4-1.3.1-.4-.3-.4-.9-.1-1.3 3.9-4.5 8.8-10.7 12.6-16.4-.8-2.4-1.4-5.1-1.6-7.5-.4-3.4.3-6.2 1.8-7.8 1-1 2.3-1.5 3.7-1.5 2.3.1 3.3 1.2 3.7 2.2 1.3 3-1.6 8.9-5.5 14.9.5 1.3 1.1 2.3 1.8 2.9.3.3.7.4 1 .4 1.5-.2 3.9-1.7 6.2-3.8.1-3.1.5-6.2 1.3-8.4 1.4-4.1 3.5-4.7 5-4.6 1.6.2 2.5 1.2 2.5 2.7 0 3-3.3 7.6-7 11.1 0 4.9 1.1 9.5 3 10.6.1 0 .1.1.2.1.1.1 2.8 2.6 7.8-.1 5.3-2.8 10.7-13.3 7.3-21C52 13.1 45.4 1.8 30.3 1.8 18.5 1.9 2 9.9 2 27.8 2 48.5 16.5 55.9 30.1 56h.2c10.5 0 16.1-4.9 16.1-5 .4-.3 1-.3 1.3.1s.3 1-.1 1.3c-.2.2-6 5.5-17.3 5.5zm-3.7-45.1c-.8 0-1.5.3-2.1.9-1.2 1.2-1.6 3.5-1.3 6.4.2 1.9.6 3.9 1.1 5.7 3.3-5.3 5.4-9.8 4.6-11.9-.2-.4-.6-1-2.1-1.1h-.2zM40 16.3c-1.5 0-2.4 2.1-2.9 3.4-.6 1.7-1 3.8-1.1 5.9 2.8-2.9 5-6.3 5-8.4 0-.5-.1-.8-.9-.9H40z"/></svg>
<svg width="144" height="44" viewBox="-9.106 -2.577 144 44" enable-background="new -9.106 -2.577 142 42" id="marx-brand-lg" y="126"><path d="M120.878 25.51l10.338-14.484h-9.072l-5.83 8.774c-1.022-1.622-4.868-7.152-5.89-8.774h-9.497l10.52 14.724-10.52 14.842h9.018c1.02-1.622 5.08-7.357 6.162-8.98l6.096 8.98h9.376L120.876 25.51zM87.765 15.414v-4.388h-7.753v29.566h7.994v-13.52c0-6.37 3.546-8.353 7.63-8.353.723 0 1.504.06 2.404.24v-8.055c-.6-.06-1.202-.12-1.862-.12-2.524 0-6.61.722-8.413 4.628M67.93 16.214c-1.8-3.345-5.528-5.79-10.484-5.79-8.49 0-14.73 7.076-14.73 15.375 0 8.23 6.176 15.31 14.667 15.31 5.02 0 8.747-2.448 10.548-5.79v5.362h7.445v-29.86H67.93v5.39zm-1.584 10.74c-.593 4.272-4.06 7.554-8.26 7.554-4.615 0-8.36-3.96-8.36-8.847 0-4.884 3.745-8.844 8.36-8.844 3.94 0 7.237 2.89 8.12 6.774.15.665.24 1.357.24 2.072 0 .44-.042.87-.1 1.293" fill="#20164d"/><path fill="#20164d" d="M17.998 40.44l12.26-28.277V40.44h8.173V-.576h-11.3l-12.5 30.77L1.834-.576h-10.94V40.44h7.934V12.405l12.26 28.037z"/><text transform="translate(0 2) translate(126.566 3.446)" font-size="7.736" fill="#20164d" font-family="CircularStd-Book">®</text></svg>
<svg width="144" height="44" viewBox="-9.106 -2.577 144 44" enable-background="new -9.106 -2.577 142 42" id="marx-brand-lg-hover" y="170"><g fill="#f7fafc"><path d="M120.878 25.51l10.338-14.484h-9.072l-5.83 8.774c-1.022-1.622-4.868-7.152-5.89-8.774h-9.497l10.52 14.724-10.52 14.842h9.018c1.02-1.622 5.08-7.357 6.162-8.98l6.096 8.98h9.376L120.876 25.51zM87.765 15.414v-4.388h-7.753v29.566h7.994v-13.52c0-6.37 3.546-8.353 7.63-8.353.723 0 1.504.06 2.404.24v-8.055c-.6-.06-1.202-.12-1.862-.12-2.524 0-6.61.722-8.413 4.628M67.93 16.214c-1.8-3.345-5.528-5.79-10.484-5.79-8.49 0-14.73 7.076-14.73 15.375 0 8.23 6.176 15.31 14.667 15.31 5.02 0 8.747-2.448 10.548-5.79v5.362h7.445v-29.86H67.93v5.39zm-1.584 10.74c-.593 4.272-4.06 7.554-8.26 7.554-4.615 0-8.36-3.96-8.36-8.847 0-4.884 3.745-8.844 8.36-8.844 3.94 0 7.237 2.89 8.12 6.774.15.665.24 1.357.24 2.072 0 .44-.042.87-.1 1.293"/><path d="M17.998 40.44l12.26-28.277V40.44h8.173V-.576h-11.3l-12.5 30.77L1.834-.576h-10.94V40.44h7.934V12.405l12.26 28.037z"/><text transform="translate(0 2) translate(126.566 3.446)" font-size="7.736" font-family="CircularStd-Book">®</text></g></svg>
<svg width="88.521" height="31.186" viewBox="-25.878 -8.938 88.521 31.186" enable-background="new -25.878 -8.938 88.521 31.186" id="marx-tagline-lg" y="214"><defs><path id="aga" d="M-25.878-8.938h88.49v31.18h-88.49z"/></defs><clipPath id="agb"><use xlink:href="#aga" overflow="visible"/></clipPath><g clip-path="url(#agb)" fill="#20164D" font-family="'CircularStd-Medium'" font-size="15.673"><text transform="translate(-25.878 4.454)">B</text><text transform="translate(-16.412 4.454)">r</text><text transform="translate(-10.407 4.454)">anding</text></g><defs><path id="agc" d="M-25.878-8.938h88.49v31.18h-88.49z"/></defs><clipPath id="agd"><use xlink:href="#agc" overflow="visible"/></clipPath><g clip-path="url(#agd)" fill="#20164D" font-family="'CircularStd-Medium'" font-size="15.673"><text transform="translate(-25.878 18.517)">&amp;</text><text transform="translate(-11.523 18.517)">P</text><text transform="translate(-2.432 18.517)">a</text><text transform="translate(5.892 18.517)">c</text><text transform="translate(14.37 18.517)">k</text><text transform="translate(22.708 18.517)">aging</text></g></svg>
<svg width="88.521" height="31.186" viewBox="0 0 88.521 31.186" id="marx-tagline-lg-hover" y="246"><defs><path id="afa" d="M0 0h88.49v31.18H0z"/></defs><clipPath id="afb"><use xlink:href="#afa" overflow="visible"/></clipPath><g clip-path="url(#afb)" fill="#F7FAFC" font-family="'CircularStd-Medium'" font-size="15.673"><text transform="translate(0 13.393)">B</text><text transform="translate(9.466 13.393)">r</text><text transform="translate(15.47 13.393)">anding</text></g><defs><path id="afc" d="M0 0h88.49v31.18H0z"/></defs><clipPath id="afd"><use xlink:href="#afc" overflow="visible"/></clipPath><g clip-path="url(#afd)" fill="#F7FAFC" font-family="'CircularStd-Medium'" font-size="15.673"><text transform="translate(0 27.455)">&amp;</text><text transform="translate(14.355 27.455)">P</text><text transform="translate(23.446 27.455)">a</text><text transform="translate(31.769 27.455)">c</text><text transform="translate(40.248 27.455)">k</text><text transform="translate(48.586 27.455)">aging</text></g></svg>
<svg width="27" height="29" viewBox="1.5 1.5 27 29" enable-background="new 1.5 1.5 27 29" id="menu-fixed" y="278"><path fill="#F7FAFC" stroke="#449FDB" stroke-width=".919" d="M1.5 1.5"/><path fill="#F7FAFC" d="M1.5 25.79h27v-3.48h-27v3.48zm0-7.837h27v-3.48h-27v3.48zm0-11.323v3.48h27V6.63h-27z"/></svg>
<svg width="27" height="29" viewBox="0 0 27 29" id="menu-mobile" y="307"><path fill="#170C51" stroke="#449FDB" stroke-width=".919" d="M0 0"/><path fill="#170C51" d="M0 24.29h27v-3.48H0v3.48zm0-7.837h27v-3.48H0v3.48zM0 5.13v3.48h27V5.13H0z"/></svg>
</svg>